{
  "success": true,
  "timestamp": "2025-10-21T06:02:31.766Z",
  "requestId": "req_clci0rnwnxs",
  "data": {
    "users": [
      {
        "id": 1,
        "username": "user1",
        "email": "user1@example.com",
        "firstName": "Alice",
        "lastName": "Smith",
        "active": true,
        "role": "admin",
        "createdAt": "2024-11-01T19:07:01.648Z"
      },
      {
        "id": 2,
        "username": "user2",
        "email": "user2@example.com",
        "firstName": "Alice",
        "lastName": "Wilson",
        "active": true,
        "role": "moderator",
        "createdAt": "2025-05-29T06:50:24.568Z"
      },
      {
        "id": 3,
        "username": "user3",
        "email": "user3@example.com",
        "firstName": "Alice",
        "lastName": "Wilson",
        "active": true,
        "role": "moderator",
        "createdAt": "2025-04-06T14:28:43.768Z"
      },
      {
        "id": 4,
        "username": "user4",
        "email": "user4@example.com",
        "firstName": "Jane",
        "lastName": "Johnson",
        "active": true,
        "role": "admin",
        "createdAt": "2024-11-20T17:42:44.069Z"
      },
      {
        "id": 5,
        "username": "user5",
        "email": "user5@example.com",
        "firstName": "Bob",
        "lastName": "Johnson",
        "active": true,
        "role": "moderator",
        "createdAt": "2025-01-15T03:34:03.427Z"
      },
      {
        "id": 6,
        "username": "user6",
        "email": "user6@example.com",
        "firstName": "Bob",
        "lastName": "Johnson",
        "active": true,
        "role": "admin",
        "createdAt": "2025-07-23T01:06:56.031Z"
      },
      {
        "id": 7,
        "username": "user7",
        "email": "user7@example.com",
        "firstName": "John",
        "lastName": "Davis",
        "active": true,
        "role": "admin",
        "createdAt": "2025-10-15T23:38:55.682Z"
      },
      {
        "id": 8,
        "username": "user8",
        "email": "user8@example.com",
        "firstName": "Jane",
        "lastName": "Davis",
        "active": true,
        "role": "moderator",
        "createdAt": "2025-02-08T18:25:28.365Z"
      },
      {
        "id": 9,
        "username": "user9",
        "email": "user9@example.com",
        "firstName": "John",
        "lastName": "Davis",
        "active": false,
        "role": "admin",
        "createdAt": "2024-11-19T12:54:50.407Z"
      },
      {
        "id": 10,
        "username": "user10",
        "email": "user10@example.com",
        "firstName": "John",
        "lastName": "Johnson",
        "active": true,
        "role": "user",
        "createdAt": "2025-06-21T02:40:57.318Z"
      },
      {
        "id": 11,
        "username": "user11",
        "email": "user11@example.com",
        "firstName": "John",
        "lastName": "Davis",
        "active": true,
        "role": "admin",
        "createdAt": "2025-03-23T01:44:26.368Z"
      },
      {
        "id": 12,
        "username": "user12",
        "email": "user12@example.com",
        "firstName": "Carol",
        "lastName": "Wilson",
        "active": true,
        "role": "user",
        "createdAt": "2025-05-10T23:06:07.547Z"
      },
      {
        "id": 13,
        "username": "user13",
        "email": "user13@example.com",
        "firstName": "Carol",
        "lastName": "Brown",
        "active": false,
        "role": "moderator",
        "createdAt": "2025-09-27T10:50:07.037Z"
      },
      {
        "id": 14,
        "username": "user14",
        "email": "user14@example.com",
        "firstName": "Alice",
        "lastName": "Davis",
        "active": true,
        "role": "user",
        "createdAt": "2024-12-30T01:32:16.833Z"
      },
      {
        "id": 15,
        "username": "user15",
        "email": "user15@example.com",
        "firstName": "Carol",
        "lastName": "Wilson",
        "active": true,
        "role": "user",
        "createdAt": "2025-10-07T12:02:55.854Z"
      },
      {
        "id": 16,
        "username": "user16",
        "email": "user16@example.com",
        "firstName": "Alice",
        "lastName": "Brown",
        "active": false,
        "role": "admin",
        "createdAt": "2025-05-04T07:57:50.825Z"
      },
      {
        "id": 17,
        "username": "user17",
        "email": "user17@example.com",
        "firstName": "Alice",
        "lastName": "Davis",
        "active": true,
        "role": "moderator",
        "createdAt": "2025-02-21T13:24:30.943Z"
      },
      {
        "id": 18,
        "username": "user18",
        "email": "user18@example.com",
        "firstName": "Carol",
        "lastName": "Wilson",
        "active": true,
        "role": "moderator",
        "createdAt": "2025-02-05T20:51:36.520Z"
      },
      {
        "id": 19,
        "username": "user19",
        "email": "user19@example.com",
        "firstName": "Carol",
        "lastName": "Davis",
        "active": true,
        "role": "user",
        "createdAt": "2025-03-20T23:05:40.370Z"
      },
      {
        "id": 20,
        "username": "user20",
        "email": "user20@example.com",
        "firstName": "Jane",
        "lastName": "Wilson",
        "active": true,
        "role": "admin",
        "createdAt": "2024-11-16T00:14:06.936Z"
      },
      {
        "id": 21,
        "username": "user21",
        "email": "user21@example.com",
        "firstName": "Carol",
        "lastName": "Brown",
        "active": true,
        "role": "moderator",
        "createdAt": "2024-11-02T17:25:19.751Z"
      },
      {
        "id": 22,
        "username": "user22",
        "email": "user22@example.com",
        "firstName": "Bob",
        "lastName": "Johnson",
        "active": true,
        "role": "moderator",
        "createdAt": "2025-04-17T22:18:15.619Z"
      },
      {
        "id": 23,
        "username": "user23",
        "email": "user23@example.com",
        "firstName": "Bob",
        "lastName": "Wilson",
        "active": true,
        "role": "user",
        "createdAt": "2025-03-29T21:30:42.321Z"
      },
      {
        "id": 24,
        "username": "user24",
        "email": "user24@example.com",
        "firstName": "Jane",
        "lastName": "Smith",
        "active": false,
        "role": "moderator",
        "createdAt": "2025-04-24T19:41:19.447Z"
      },
      {
        "id": 25,
        "username": "user25",
        "email": "user25@example.com",
        "firstName": "Alice",
        "lastName": "Brown",
        "active": false,
        "role": "admin",
        "createdAt": "2025-04-13T13:04:28.921Z"
      }
    ]
  },
  "pagination": {
    "page": 1,
    "limit": 25,
    "total": 250,
    "totalPages": 10,
    "hasNext": true,
    "hasPrev": false
  },
  "meta": {
    "version": "2.0",
    "documentation": "https://api.example.com/docs",
    "rateLimiting": {
      "remaining": 995,
      "reset": "2025-10-21T07:02:31.766Z"
    }
  }
}