{
  "success": true,
  "timestamp": "2025-10-21T06:04:58.824Z",
  "requestId": "req_qs1d6ekr0b8",
  "data": {
    "users": [
      {
        "id": 1,
        "username": "user1",
        "email": "user1@example.com",
        "firstName": "Jane",
        "lastName": "Smith",
        "active": true,
        "role": "user",
        "createdAt": "2025-07-29T13:12:47.448Z"
      },
      {
        "id": 2,
        "username": "user2",
        "email": "user2@example.com",
        "firstName": "Carol",
        "lastName": "Davis",
        "active": false,
        "role": "user",
        "createdAt": "2024-11-15T23:30:59.055Z"
      },
      {
        "id": 3,
        "username": "user3",
        "email": "user3@example.com",
        "firstName": "John",
        "lastName": "Smith",
        "active": true,
        "role": "moderator",
        "createdAt": "2025-04-13T21:04:45.996Z"
      },
      {
        "id": 4,
        "username": "user4",
        "email": "user4@example.com",
        "firstName": "John",
        "lastName": "Wilson",
        "active": true,
        "role": "admin",
        "createdAt": "2025-02-17T12:24:53.238Z"
      },
      {
        "id": 5,
        "username": "user5",
        "email": "user5@example.com",
        "firstName": "Jane",
        "lastName": "Wilson",
        "active": false,
        "role": "user",
        "createdAt": "2025-01-31T03:44:23.701Z"
      },
      {
        "id": 6,
        "username": "user6",
        "email": "user6@example.com",
        "firstName": "Bob",
        "lastName": "Johnson",
        "active": true,
        "role": "user",
        "createdAt": "2025-05-29T04:48:37.040Z"
      },
      {
        "id": 7,
        "username": "user7",
        "email": "user7@example.com",
        "firstName": "Bob",
        "lastName": "Wilson",
        "active": false,
        "role": "admin",
        "createdAt": "2025-06-14T10:33:59.618Z"
      },
      {
        "id": 8,
        "username": "user8",
        "email": "user8@example.com",
        "firstName": "Carol",
        "lastName": "Smith",
        "active": true,
        "role": "moderator",
        "createdAt": "2025-03-09T11:21:22.304Z"
      },
      {
        "id": 9,
        "username": "user9",
        "email": "user9@example.com",
        "firstName": "Jane",
        "lastName": "Brown",
        "active": true,
        "role": "user",
        "createdAt": "2024-12-09T07:48:48.856Z"
      },
      {
        "id": 10,
        "username": "user10",
        "email": "user10@example.com",
        "firstName": "Bob",
        "lastName": "Brown",
        "active": true,
        "role": "moderator",
        "createdAt": "2025-05-29T12:49:44.166Z"
      },
      {
        "id": 11,
        "username": "user11",
        "email": "user11@example.com",
        "firstName": "Bob",
        "lastName": "Johnson",
        "active": true,
        "role": "moderator",
        "createdAt": "2025-10-21T05:22:23.625Z"
      },
      {
        "id": 12,
        "username": "user12",
        "email": "user12@example.com",
        "firstName": "John",
        "lastName": "Smith",
        "active": true,
        "role": "moderator",
        "createdAt": "2025-02-25T22:33:35.755Z"
      },
      {
        "id": 13,
        "username": "user13",
        "email": "user13@example.com",
        "firstName": "John",
        "lastName": "Davis",
        "active": true,
        "role": "user",
        "createdAt": "2025-08-23T07:59:41.557Z"
      },
      {
        "id": 14,
        "username": "user14",
        "email": "user14@example.com",
        "firstName": "Alice",
        "lastName": "Johnson",
        "active": true,
        "role": "moderator",
        "createdAt": "2024-12-24T22:22:30.753Z"
      },
      {
        "id": 15,
        "username": "user15",
        "email": "user15@example.com",
        "firstName": "John",
        "lastName": "Johnson",
        "active": true,
        "role": "admin",
        "createdAt": "2025-02-24T12:34:02.953Z"
      },
      {
        "id": 16,
        "username": "user16",
        "email": "user16@example.com",
        "firstName": "Jane",
        "lastName": "Smith",
        "active": true,
        "role": "admin",
        "createdAt": "2025-02-17T04:19:54.642Z"
      },
      {
        "id": 17,
        "username": "user17",
        "email": "user17@example.com",
        "firstName": "Alice",
        "lastName": "Wilson",
        "active": true,
        "role": "admin",
        "createdAt": "2025-05-19T07:07:52.573Z"
      },
      {
        "id": 18,
        "username": "user18",
        "email": "user18@example.com",
        "firstName": "Carol",
        "lastName": "Smith",
        "active": true,
        "role": "moderator",
        "createdAt": "2025-02-24T13:56:15.150Z"
      },
      {
        "id": 19,
        "username": "user19",
        "email": "user19@example.com",
        "firstName": "Jane",
        "lastName": "Smith",
        "active": true,
        "role": "admin",
        "createdAt": "2025-07-24T02:19:35.692Z"
      },
      {
        "id": 20,
        "username": "user20",
        "email": "user20@example.com",
        "firstName": "Bob",
        "lastName": "Smith",
        "active": true,
        "role": "user",
        "createdAt": "2025-01-21T16:08:34.155Z"
      },
      {
        "id": 21,
        "username": "user21",
        "email": "user21@example.com",
        "firstName": "Carol",
        "lastName": "Brown",
        "active": true,
        "role": "admin",
        "createdAt": "2025-07-08T14:57:57.484Z"
      },
      {
        "id": 22,
        "username": "user22",
        "email": "user22@example.com",
        "firstName": "Carol",
        "lastName": "Davis",
        "active": true,
        "role": "admin",
        "createdAt": "2025-10-05T21:56:50.000Z"
      },
      {
        "id": 23,
        "username": "user23",
        "email": "user23@example.com",
        "firstName": "Alice",
        "lastName": "Wilson",
        "active": true,
        "role": "user",
        "createdAt": "2025-08-23T18:11:28.811Z"
      },
      {
        "id": 24,
        "username": "user24",
        "email": "user24@example.com",
        "firstName": "Bob",
        "lastName": "Davis",
        "active": true,
        "role": "admin",
        "createdAt": "2025-08-16T13:58:31.020Z"
      },
      {
        "id": 25,
        "username": "user25",
        "email": "user25@example.com",
        "firstName": "Alice",
        "lastName": "Brown",
        "active": true,
        "role": "moderator",
        "createdAt": "2025-03-20T16:14:29.991Z"
      }
    ]
  },
  "pagination": {
    "page": 1,
    "limit": 25,
    "total": 250,
    "totalPages": 10,
    "hasNext": true,
    "hasPrev": false
  },
  "meta": {
    "version": "2.0",
    "documentation": "https://api.example.com/docs",
    "rateLimiting": {
      "remaining": 995,
      "reset": "2025-10-21T07:04:58.825Z"
    }
  }
}