{
  "success": true,
  "timestamp": "2025-10-21T06:02:15.051Z",
  "requestId": "req_cusy5clvlan",
  "data": {
    "users": [
      {
        "id": 1,
        "username": "user1",
        "email": "user1@example.com",
        "firstName": "Jane",
        "lastName": "Brown",
        "active": true,
        "role": "moderator",
        "createdAt": "2025-04-27T04:05:08.493Z"
      },
      {
        "id": 2,
        "username": "user2",
        "email": "user2@example.com",
        "firstName": "Jane",
        "lastName": "Davis",
        "active": true,
        "role": "moderator",
        "createdAt": "2024-11-09T07:42:42.788Z"
      },
      {
        "id": 3,
        "username": "user3",
        "email": "user3@example.com",
        "firstName": "Jane",
        "lastName": "Wilson",
        "active": true,
        "role": "moderator",
        "createdAt": "2024-12-05T08:30:57.538Z"
      },
      {
        "id": 4,
        "username": "user4",
        "email": "user4@example.com",
        "firstName": "Bob",
        "lastName": "Brown",
        "active": true,
        "role": "admin",
        "createdAt": "2025-06-19T07:43:25.990Z"
      },
      {
        "id": 5,
        "username": "user5",
        "email": "user5@example.com",
        "firstName": "Bob",
        "lastName": "Johnson",
        "active": true,
        "role": "moderator",
        "createdAt": "2025-04-20T11:06:32.819Z"
      },
      {
        "id": 6,
        "username": "user6",
        "email": "user6@example.com",
        "firstName": "Jane",
        "lastName": "Brown",
        "active": false,
        "role": "moderator",
        "createdAt": "2025-08-26T00:39:54.989Z"
      },
      {
        "id": 7,
        "username": "user7",
        "email": "user7@example.com",
        "firstName": "Bob",
        "lastName": "Johnson",
        "active": false,
        "role": "user",
        "createdAt": "2025-10-11T17:07:44.988Z"
      },
      {
        "id": 8,
        "username": "user8",
        "email": "user8@example.com",
        "firstName": "Alice",
        "lastName": "Davis",
        "active": false,
        "role": "moderator",
        "createdAt": "2025-06-12T10:48:29.203Z"
      },
      {
        "id": 9,
        "username": "user9",
        "email": "user9@example.com",
        "firstName": "John",
        "lastName": "Brown",
        "active": true,
        "role": "user",
        "createdAt": "2025-05-29T06:36:16.987Z"
      },
      {
        "id": 10,
        "username": "user10",
        "email": "user10@example.com",
        "firstName": "Alice",
        "lastName": "Davis",
        "active": false,
        "role": "admin",
        "createdAt": "2025-08-05T09:19:57.556Z"
      },
      {
        "id": 11,
        "username": "user11",
        "email": "user11@example.com",
        "firstName": "Jane",
        "lastName": "Brown",
        "active": true,
        "role": "admin",
        "createdAt": "2024-11-25T03:30:16.297Z"
      },
      {
        "id": 12,
        "username": "user12",
        "email": "user12@example.com",
        "firstName": "Jane",
        "lastName": "Wilson",
        "active": true,
        "role": "moderator",
        "createdAt": "2025-07-16T13:04:34.226Z"
      },
      {
        "id": 13,
        "username": "user13",
        "email": "user13@example.com",
        "firstName": "Bob",
        "lastName": "Wilson",
        "active": true,
        "role": "moderator",
        "createdAt": "2025-06-27T03:33:25.008Z"
      },
      {
        "id": 14,
        "username": "user14",
        "email": "user14@example.com",
        "firstName": "Alice",
        "lastName": "Johnson",
        "active": false,
        "role": "user",
        "createdAt": "2024-10-27T07:56:14.992Z"
      },
      {
        "id": 15,
        "username": "user15",
        "email": "user15@example.com",
        "firstName": "Bob",
        "lastName": "Wilson",
        "active": true,
        "role": "user",
        "createdAt": "2025-08-23T04:32:03.546Z"
      },
      {
        "id": 16,
        "username": "user16",
        "email": "user16@example.com",
        "firstName": "Jane",
        "lastName": "Wilson",
        "active": true,
        "role": "moderator",
        "createdAt": "2025-09-17T17:58:30.687Z"
      },
      {
        "id": 17,
        "username": "user17",
        "email": "user17@example.com",
        "firstName": "Carol",
        "lastName": "Brown",
        "active": true,
        "role": "user",
        "createdAt": "2025-02-20T13:55:58.623Z"
      },
      {
        "id": 18,
        "username": "user18",
        "email": "user18@example.com",
        "firstName": "Jane",
        "lastName": "Smith",
        "active": true,
        "role": "user",
        "createdAt": "2025-04-26T10:51:06.108Z"
      },
      {
        "id": 19,
        "username": "user19",
        "email": "user19@example.com",
        "firstName": "Carol",
        "lastName": "Smith",
        "active": true,
        "role": "admin",
        "createdAt": "2025-05-09T01:12:10.250Z"
      },
      {
        "id": 20,
        "username": "user20",
        "email": "user20@example.com",
        "firstName": "Alice",
        "lastName": "Smith",
        "active": true,
        "role": "user",
        "createdAt": "2025-04-03T21:06:08.485Z"
      },
      {
        "id": 21,
        "username": "user21",
        "email": "user21@example.com",
        "firstName": "Jane",
        "lastName": "Smith",
        "active": true,
        "role": "moderator",
        "createdAt": "2025-07-21T00:38:38.471Z"
      },
      {
        "id": 22,
        "username": "user22",
        "email": "user22@example.com",
        "firstName": "Carol",
        "lastName": "Brown",
        "active": true,
        "role": "user",
        "createdAt": "2025-08-30T16:13:18.155Z"
      },
      {
        "id": 23,
        "username": "user23",
        "email": "user23@example.com",
        "firstName": "Carol",
        "lastName": "Brown",
        "active": true,
        "role": "admin",
        "createdAt": "2024-11-13T13:24:31.170Z"
      },
      {
        "id": 24,
        "username": "user24",
        "email": "user24@example.com",
        "firstName": "John",
        "lastName": "Wilson",
        "active": true,
        "role": "moderator",
        "createdAt": "2024-12-23T19:45:52.200Z"
      },
      {
        "id": 25,
        "username": "user25",
        "email": "user25@example.com",
        "firstName": "Jane",
        "lastName": "Johnson",
        "active": true,
        "role": "user",
        "createdAt": "2025-08-01T18:52:29.915Z"
      }
    ]
  },
  "pagination": {
    "page": 1,
    "limit": 25,
    "total": 250,
    "totalPages": 10,
    "hasNext": true,
    "hasPrev": false
  },
  "meta": {
    "version": "2.0",
    "documentation": "https://api.example.com/docs",
    "rateLimiting": {
      "remaining": 995,
      "reset": "2025-10-21T07:02:15.051Z"
    }
  }
}