{
  "success": true,
  "timestamp": "2025-10-23T14:21:36.811Z",
  "requestId": "req_v6i62o7dh6",
  "data": {
    "users": [
      {
        "id": 1,
        "username": "user1",
        "email": "user1@example.com",
        "firstName": "Alice",
        "lastName": "Johnson",
        "active": true,
        "role": "admin",
        "createdAt": "2025-01-12T04:20:53.769Z"
      },
      {
        "id": 2,
        "username": "user2",
        "email": "user2@example.com",
        "firstName": "Alice",
        "lastName": "Smith",
        "active": true,
        "role": "admin",
        "createdAt": "2025-10-13T05:31:56.271Z"
      },
      {
        "id": 3,
        "username": "user3",
        "email": "user3@example.com",
        "firstName": "Alice",
        "lastName": "Davis",
        "active": true,
        "role": "moderator",
        "createdAt": "2025-07-28T23:59:35.698Z"
      },
      {
        "id": 4,
        "username": "user4",
        "email": "user4@example.com",
        "firstName": "John",
        "lastName": "Brown",
        "active": true,
        "role": "user",
        "createdAt": "2025-06-08T13:06:51.018Z"
      },
      {
        "id": 5,
        "username": "user5",
        "email": "user5@example.com",
        "firstName": "Carol",
        "lastName": "Johnson",
        "active": true,
        "role": "user",
        "createdAt": "2025-02-12T12:30:13.873Z"
      },
      {
        "id": 6,
        "username": "user6",
        "email": "user6@example.com",
        "firstName": "Carol",
        "lastName": "Brown",
        "active": true,
        "role": "moderator",
        "createdAt": "2025-09-07T20:32:09.032Z"
      },
      {
        "id": 7,
        "username": "user7",
        "email": "user7@example.com",
        "firstName": "Alice",
        "lastName": "Davis",
        "active": true,
        "role": "user",
        "createdAt": "2025-01-10T11:56:01.329Z"
      },
      {
        "id": 8,
        "username": "user8",
        "email": "user8@example.com",
        "firstName": "John",
        "lastName": "Brown",
        "active": true,
        "role": "moderator",
        "createdAt": "2025-06-08T07:30:15.097Z"
      },
      {
        "id": 9,
        "username": "user9",
        "email": "user9@example.com",
        "firstName": "Jane",
        "lastName": "Wilson",
        "active": true,
        "role": "admin",
        "createdAt": "2025-02-01T03:54:09.398Z"
      },
      {
        "id": 10,
        "username": "user10",
        "email": "user10@example.com",
        "firstName": "Carol",
        "lastName": "Brown",
        "active": true,
        "role": "moderator",
        "createdAt": "2025-03-04T07:00:34.047Z"
      },
      {
        "id": 11,
        "username": "user11",
        "email": "user11@example.com",
        "firstName": "John",
        "lastName": "Smith",
        "active": true,
        "role": "user",
        "createdAt": "2024-11-17T01:21:40.457Z"
      },
      {
        "id": 12,
        "username": "user12",
        "email": "user12@example.com",
        "firstName": "Bob",
        "lastName": "Smith",
        "active": false,
        "role": "admin",
        "createdAt": "2025-05-21T14:06:42.561Z"
      },
      {
        "id": 13,
        "username": "user13",
        "email": "user13@example.com",
        "firstName": "John",
        "lastName": "Davis",
        "active": false,
        "role": "user",
        "createdAt": "2024-11-02T12:07:25.840Z"
      },
      {
        "id": 14,
        "username": "user14",
        "email": "user14@example.com",
        "firstName": "Carol",
        "lastName": "Smith",
        "active": true,
        "role": "admin",
        "createdAt": "2024-11-30T10:44:21.917Z"
      },
      {
        "id": 15,
        "username": "user15",
        "email": "user15@example.com",
        "firstName": "John",
        "lastName": "Wilson",
        "active": false,
        "role": "admin",
        "createdAt": "2025-07-02T20:09:31.424Z"
      },
      {
        "id": 16,
        "username": "user16",
        "email": "user16@example.com",
        "firstName": "John",
        "lastName": "Smith",
        "active": true,
        "role": "user",
        "createdAt": "2025-03-24T08:59:07.802Z"
      },
      {
        "id": 17,
        "username": "user17",
        "email": "user17@example.com",
        "firstName": "Alice",
        "lastName": "Smith",
        "active": true,
        "role": "admin",
        "createdAt": "2025-10-13T11:11:19.737Z"
      },
      {
        "id": 18,
        "username": "user18",
        "email": "user18@example.com",
        "firstName": "Carol",
        "lastName": "Wilson",
        "active": true,
        "role": "moderator",
        "createdAt": "2025-07-05T07:41:49.594Z"
      },
      {
        "id": 19,
        "username": "user19",
        "email": "user19@example.com",
        "firstName": "Carol",
        "lastName": "Davis",
        "active": true,
        "role": "moderator",
        "createdAt": "2025-04-29T03:28:03.183Z"
      },
      {
        "id": 20,
        "username": "user20",
        "email": "user20@example.com",
        "firstName": "Alice",
        "lastName": "Brown",
        "active": true,
        "role": "moderator",
        "createdAt": "2025-10-08T05:22:39.126Z"
      },
      {
        "id": 21,
        "username": "user21",
        "email": "user21@example.com",
        "firstName": "Alice",
        "lastName": "Brown",
        "active": true,
        "role": "user",
        "createdAt": "2025-07-31T16:54:52.076Z"
      },
      {
        "id": 22,
        "username": "user22",
        "email": "user22@example.com",
        "firstName": "Alice",
        "lastName": "Smith",
        "active": false,
        "role": "user",
        "createdAt": "2025-08-28T03:55:59.345Z"
      },
      {
        "id": 23,
        "username": "user23",
        "email": "user23@example.com",
        "firstName": "Alice",
        "lastName": "Johnson",
        "active": false,
        "role": "moderator",
        "createdAt": "2025-02-07T12:31:55.791Z"
      },
      {
        "id": 24,
        "username": "user24",
        "email": "user24@example.com",
        "firstName": "Jane",
        "lastName": "Johnson",
        "active": true,
        "role": "user",
        "createdAt": "2025-05-01T00:25:22.842Z"
      },
      {
        "id": 25,
        "username": "user25",
        "email": "user25@example.com",
        "firstName": "Alice",
        "lastName": "Smith",
        "active": true,
        "role": "admin",
        "createdAt": "2025-03-20T03:16:10.442Z"
      }
    ]
  },
  "pagination": {
    "page": 1,
    "limit": 25,
    "total": 250,
    "totalPages": 10,
    "hasNext": true,
    "hasPrev": false
  },
  "meta": {
    "version": "2.0",
    "documentation": "https://api.example.com/docs",
    "rateLimiting": {
      "remaining": 995,
      "reset": "2025-10-23T15:21:36.811Z"
    }
  }
}