{"success":true,"timestamp":"2025-10-23T14:32:12.094Z","requestId":"req_hprtyf9t26b","data":{"users":[{"id":1,"username":"user1","email":"user1@example.com","firstName":"Alice","lastName":"Wilson","active":true,"role":"user","createdAt":"2025-01-28T10:33:56.466Z"},{"id":2,"username":"user2","email":"user2@example.com","firstName":"Carol","lastName":"Davis","active":true,"role":"moderator","createdAt":"2025-05-26T22:26:57.046Z"},{"id":3,"username":"user3","email":"user3@example.com","firstName":"Bob","lastName":"Johnson","active":true,"role":"admin","createdAt":"2025-09-07T05:27:49.278Z"},{"id":4,"username":"user4","email":"user4@example.com","firstName":"Alice","lastName":"Davis","active":false,"role":"moderator","createdAt":"2025-05-30T04:55:10.721Z"},{"id":5,"username":"user5","email":"user5@example.com","firstName":"Jane","lastName":"Smith","active":true,"role":"admin","createdAt":"2025-05-19T11:34:01.943Z"},{"id":6,"username":"user6","email":"user6@example.com","firstName":"Alice","lastName":"Smith","active":true,"role":"moderator","createdAt":"2025-02-18T05:35:52.369Z"},{"id":7,"username":"user7","email":"user7@example.com","firstName":"Carol","lastName":"Smith","active":false,"role":"user","createdAt":"2025-07-08T15:37:21.869Z"},{"id":8,"username":"user8","email":"user8@example.com","firstName":"Carol","lastName":"Wilson","active":true,"role":"moderator","createdAt":"2025-10-21T00:56:10.460Z"},{"id":9,"username":"user9","email":"user9@example.com","firstName":"Alice","lastName":"Smith","active":false,"role":"user","createdAt":"2024-11-23T13:29:08.712Z"},{"id":10,"username":"user10","email":"user10@example.com","firstName":"Carol","lastName":"Smith","active":true,"role":"moderator","createdAt":"2025-08-25T14:06:12.811Z"},{"id":11,"username":"user11","email":"user11@example.com","firstName":"Bob","lastName":"Wilson","active":true,"role":"moderator","createdAt":"2025-04-07T09:30:09.605Z"},{"id":12,"username":"user12","email":"user12@example.com","firstName":"Alice","lastName":"Smith","active":true,"role":"moderator","createdAt":"2025-05-01T21:11:08.632Z"},{"id":13,"username":"user13","email":"user13@example.com","firstName":"Jane","lastName":"Johnson","active":true,"role":"moderator","createdAt":"2025-03-30T07:57:01.889Z"},{"id":14,"username":"user14","email":"user14@example.com","firstName":"Jane","lastName":"Davis","active":false,"role":"moderator","createdAt":"2025-05-29T21:00:57.958Z"},{"id":15,"username":"user15","email":"user15@example.com","firstName":"Alice","lastName":"Davis","active":true,"role":"moderator","createdAt":"2025-01-13T07:10:56.216Z"},{"id":16,"username":"user16","email":"user16@example.com","firstName":"Alice","lastName":"Davis","active":false,"role":"user","createdAt":"2025-10-04T14:00:14.669Z"},{"id":17,"username":"user17","email":"user17@example.com","firstName":"Bob","lastName":"Smith","active":true,"role":"admin","createdAt":"2025-01-11T19:45:47.155Z"},{"id":18,"username":"user18","email":"user18@example.com","firstName":"John","lastName":"Brown","active":true,"role":"moderator","createdAt":"2025-10-06T20:42:30.449Z"},{"id":19,"username":"user19","email":"user19@example.com","firstName":"Jane","lastName":"Brown","active":true,"role":"moderator","createdAt":"2025-06-30T15:06:07.613Z"},{"id":20,"username":"user20","email":"user20@example.com","firstName":"John","lastName":"Brown","active":true,"role":"moderator","createdAt":"2025-05-09T06:07:20.246Z"},{"id":21,"username":"user21","email":"user21@example.com","firstName":"Carol","lastName":"Davis","active":true,"role":"moderator","createdAt":"2025-10-22T08:08:25.099Z"},{"id":22,"username":"user22","email":"user22@example.com","firstName":"Bob","lastName":"Smith","active":true,"role":"admin","createdAt":"2024-11-16T06:26:25.506Z"},{"id":23,"username":"user23","email":"user23@example.com","firstName":"Carol","lastName":"Wilson","active":false,"role":"admin","createdAt":"2025-06-29T02:02:50.884Z"},{"id":24,"username":"user24","email":"user24@example.com","firstName":"Jane","lastName":"Wilson","active":true,"role":"user","createdAt":"2025-05-21T00:29:38.031Z"},{"id":25,"username":"user25","email":"user25@example.com","firstName":"Jane","lastName":"Brown","active":true,"role":"user","createdAt":"2024-11-18T04:29:37.090Z"}]},"pagination":{"page":1,"limit":25,"total":250,"totalPages":10,"hasNext":true,"hasPrev":false},"meta":{"version":"2.0","documentation":"https://api.example.com/docs","rateLimiting":{"remaining":995,"reset":"2025-10-23T15:32:12.094Z"}}}