{
  "success": true,
  "timestamp": "2025-10-23T05:06:03.251Z",
  "requestId": "req_yix02ud12wo",
  "data": {
    "users": [
      {
        "id": 1,
        "username": "user1",
        "email": "user1@example.com",
        "firstName": "Carol",
        "lastName": "Brown",
        "active": true,
        "role": "user",
        "createdAt": "2025-05-07T22:23:27.925Z"
      },
      {
        "id": 2,
        "username": "user2",
        "email": "user2@example.com",
        "firstName": "Alice",
        "lastName": "Wilson",
        "active": true,
        "role": "moderator",
        "createdAt": "2024-12-04T07:56:32.015Z"
      },
      {
        "id": 3,
        "username": "user3",
        "email": "user3@example.com",
        "firstName": "Carol",
        "lastName": "Wilson",
        "active": true,
        "role": "admin",
        "createdAt": "2025-03-23T19:12:13.477Z"
      },
      {
        "id": 4,
        "username": "user4",
        "email": "user4@example.com",
        "firstName": "Bob",
        "lastName": "Brown",
        "active": true,
        "role": "moderator",
        "createdAt": "2025-01-04T04:26:11.142Z"
      },
      {
        "id": 5,
        "username": "user5",
        "email": "user5@example.com",
        "firstName": "Alice",
        "lastName": "Brown",
        "active": true,
        "role": "moderator",
        "createdAt": "2025-04-29T11:03:39.835Z"
      },
      {
        "id": 6,
        "username": "user6",
        "email": "user6@example.com",
        "firstName": "Alice",
        "lastName": "Brown",
        "active": true,
        "role": "admin",
        "createdAt": "2025-01-07T13:36:36.480Z"
      },
      {
        "id": 7,
        "username": "user7",
        "email": "user7@example.com",
        "firstName": "John",
        "lastName": "Brown",
        "active": true,
        "role": "user",
        "createdAt": "2025-08-11T17:20:00.887Z"
      },
      {
        "id": 8,
        "username": "user8",
        "email": "user8@example.com",
        "firstName": "Bob",
        "lastName": "Johnson",
        "active": false,
        "role": "user",
        "createdAt": "2025-04-18T07:28:00.141Z"
      },
      {
        "id": 9,
        "username": "user9",
        "email": "user9@example.com",
        "firstName": "John",
        "lastName": "Wilson",
        "active": false,
        "role": "user",
        "createdAt": "2025-02-28T11:52:13.154Z"
      },
      {
        "id": 10,
        "username": "user10",
        "email": "user10@example.com",
        "firstName": "John",
        "lastName": "Wilson",
        "active": true,
        "role": "admin",
        "createdAt": "2024-11-09T10:46:58.869Z"
      },
      {
        "id": 11,
        "username": "user11",
        "email": "user11@example.com",
        "firstName": "John",
        "lastName": "Wilson",
        "active": false,
        "role": "moderator",
        "createdAt": "2024-11-05T18:21:22.017Z"
      },
      {
        "id": 12,
        "username": "user12",
        "email": "user12@example.com",
        "firstName": "Carol",
        "lastName": "Brown",
        "active": false,
        "role": "moderator",
        "createdAt": "2025-01-17T11:40:28.345Z"
      },
      {
        "id": 13,
        "username": "user13",
        "email": "user13@example.com",
        "firstName": "John",
        "lastName": "Johnson",
        "active": false,
        "role": "moderator",
        "createdAt": "2025-06-22T21:05:54.337Z"
      },
      {
        "id": 14,
        "username": "user14",
        "email": "user14@example.com",
        "firstName": "Bob",
        "lastName": "Johnson",
        "active": false,
        "role": "user",
        "createdAt": "2025-01-06T05:57:55.192Z"
      },
      {
        "id": 15,
        "username": "user15",
        "email": "user15@example.com",
        "firstName": "Carol",
        "lastName": "Wilson",
        "active": true,
        "role": "moderator",
        "createdAt": "2024-11-19T06:48:22.732Z"
      },
      {
        "id": 16,
        "username": "user16",
        "email": "user16@example.com",
        "firstName": "Alice",
        "lastName": "Brown",
        "active": true,
        "role": "user",
        "createdAt": "2025-02-12T03:26:07.010Z"
      },
      {
        "id": 17,
        "username": "user17",
        "email": "user17@example.com",
        "firstName": "Carol",
        "lastName": "Smith",
        "active": true,
        "role": "admin",
        "createdAt": "2025-07-04T08:28:26.134Z"
      },
      {
        "id": 18,
        "username": "user18",
        "email": "user18@example.com",
        "firstName": "John",
        "lastName": "Wilson",
        "active": true,
        "role": "user",
        "createdAt": "2025-01-23T04:36:53.775Z"
      },
      {
        "id": 19,
        "username": "user19",
        "email": "user19@example.com",
        "firstName": "Bob",
        "lastName": "Brown",
        "active": false,
        "role": "moderator",
        "createdAt": "2025-08-15T21:42:28.055Z"
      },
      {
        "id": 20,
        "username": "user20",
        "email": "user20@example.com",
        "firstName": "Carol",
        "lastName": "Johnson",
        "active": true,
        "role": "user",
        "createdAt": "2025-04-12T06:42:35.936Z"
      },
      {
        "id": 21,
        "username": "user21",
        "email": "user21@example.com",
        "firstName": "Carol",
        "lastName": "Smith",
        "active": true,
        "role": "admin",
        "createdAt": "2025-08-29T21:54:04.625Z"
      },
      {
        "id": 22,
        "username": "user22",
        "email": "user22@example.com",
        "firstName": "Jane",
        "lastName": "Smith",
        "active": true,
        "role": "admin",
        "createdAt": "2025-01-30T15:13:30.358Z"
      },
      {
        "id": 23,
        "username": "user23",
        "email": "user23@example.com",
        "firstName": "John",
        "lastName": "Davis",
        "active": true,
        "role": "moderator",
        "createdAt": "2025-02-12T14:29:56.308Z"
      },
      {
        "id": 24,
        "username": "user24",
        "email": "user24@example.com",
        "firstName": "Alice",
        "lastName": "Johnson",
        "active": true,
        "role": "admin",
        "createdAt": "2025-02-13T20:22:50.146Z"
      },
      {
        "id": 25,
        "username": "user25",
        "email": "user25@example.com",
        "firstName": "Jane",
        "lastName": "Wilson",
        "active": true,
        "role": "user",
        "createdAt": "2024-11-21T18:41:01.824Z"
      }
    ]
  },
  "pagination": {
    "page": 1,
    "limit": 25,
    "total": 250,
    "totalPages": 10,
    "hasNext": true,
    "hasPrev": false
  },
  "meta": {
    "version": "2.0",
    "documentation": "https://api.example.com/docs",
    "rateLimiting": {
      "remaining": 995,
      "reset": "2025-10-23T06:06:03.251Z"
    }
  }
}