{
  "success": true,
  "timestamp": "2025-10-23T04:51:14.721Z",
  "requestId": "req_t4i8nm6p8yc",
  "data": {
    "users": [
      {
        "id": 1,
        "username": "user1",
        "email": "user1@example.com",
        "firstName": "John",
        "lastName": "Brown",
        "active": true,
        "role": "user",
        "createdAt": "2025-06-03T13:20:19.753Z"
      },
      {
        "id": 2,
        "username": "user2",
        "email": "user2@example.com",
        "firstName": "John",
        "lastName": "Johnson",
        "active": false,
        "role": "admin",
        "createdAt": "2025-05-19T05:49:02.703Z"
      },
      {
        "id": 3,
        "username": "user3",
        "email": "user3@example.com",
        "firstName": "John",
        "lastName": "Davis",
        "active": true,
        "role": "user",
        "createdAt": "2025-03-27T17:09:17.009Z"
      },
      {
        "id": 4,
        "username": "user4",
        "email": "user4@example.com",
        "firstName": "Alice",
        "lastName": "Brown",
        "active": true,
        "role": "admin",
        "createdAt": "2025-08-30T23:04:46.938Z"
      },
      {
        "id": 5,
        "username": "user5",
        "email": "user5@example.com",
        "firstName": "Carol",
        "lastName": "Johnson",
        "active": true,
        "role": "moderator",
        "createdAt": "2025-09-16T01:42:56.410Z"
      },
      {
        "id": 6,
        "username": "user6",
        "email": "user6@example.com",
        "firstName": "Jane",
        "lastName": "Smith",
        "active": false,
        "role": "user",
        "createdAt": "2024-12-06T14:37:46.317Z"
      },
      {
        "id": 7,
        "username": "user7",
        "email": "user7@example.com",
        "firstName": "Bob",
        "lastName": "Johnson",
        "active": false,
        "role": "admin",
        "createdAt": "2025-02-07T10:59:10.356Z"
      },
      {
        "id": 8,
        "username": "user8",
        "email": "user8@example.com",
        "firstName": "Alice",
        "lastName": "Smith",
        "active": true,
        "role": "moderator",
        "createdAt": "2025-05-07T10:54:25.484Z"
      },
      {
        "id": 9,
        "username": "user9",
        "email": "user9@example.com",
        "firstName": "Jane",
        "lastName": "Wilson",
        "active": true,
        "role": "user",
        "createdAt": "2025-06-10T20:34:47.651Z"
      },
      {
        "id": 10,
        "username": "user10",
        "email": "user10@example.com",
        "firstName": "Jane",
        "lastName": "Davis",
        "active": false,
        "role": "admin",
        "createdAt": "2025-04-23T03:38:02.195Z"
      },
      {
        "id": 11,
        "username": "user11",
        "email": "user11@example.com",
        "firstName": "Jane",
        "lastName": "Smith",
        "active": true,
        "role": "moderator",
        "createdAt": "2025-10-21T06:14:44.714Z"
      },
      {
        "id": 12,
        "username": "user12",
        "email": "user12@example.com",
        "firstName": "Jane",
        "lastName": "Wilson",
        "active": true,
        "role": "user",
        "createdAt": "2025-06-10T04:44:33.129Z"
      },
      {
        "id": 13,
        "username": "user13",
        "email": "user13@example.com",
        "firstName": "Jane",
        "lastName": "Davis",
        "active": true,
        "role": "user",
        "createdAt": "2024-10-27T19:42:20.730Z"
      },
      {
        "id": 14,
        "username": "user14",
        "email": "user14@example.com",
        "firstName": "Jane",
        "lastName": "Davis",
        "active": true,
        "role": "admin",
        "createdAt": "2025-06-23T02:03:02.991Z"
      },
      {
        "id": 15,
        "username": "user15",
        "email": "user15@example.com",
        "firstName": "Jane",
        "lastName": "Smith",
        "active": true,
        "role": "moderator",
        "createdAt": "2025-03-07T12:44:09.466Z"
      },
      {
        "id": 16,
        "username": "user16",
        "email": "user16@example.com",
        "firstName": "Alice",
        "lastName": "Smith",
        "active": true,
        "role": "moderator",
        "createdAt": "2024-11-30T06:11:31.502Z"
      },
      {
        "id": 17,
        "username": "user17",
        "email": "user17@example.com",
        "firstName": "Alice",
        "lastName": "Smith",
        "active": true,
        "role": "admin",
        "createdAt": "2024-12-05T03:02:59.761Z"
      },
      {
        "id": 18,
        "username": "user18",
        "email": "user18@example.com",
        "firstName": "Carol",
        "lastName": "Brown",
        "active": true,
        "role": "moderator",
        "createdAt": "2025-09-16T17:51:28.604Z"
      },
      {
        "id": 19,
        "username": "user19",
        "email": "user19@example.com",
        "firstName": "Bob",
        "lastName": "Wilson",
        "active": true,
        "role": "moderator",
        "createdAt": "2024-10-24T21:28:16.402Z"
      },
      {
        "id": 20,
        "username": "user20",
        "email": "user20@example.com",
        "firstName": "Jane",
        "lastName": "Wilson",
        "active": false,
        "role": "user",
        "createdAt": "2025-09-06T14:59:23.799Z"
      },
      {
        "id": 21,
        "username": "user21",
        "email": "user21@example.com",
        "firstName": "Bob",
        "lastName": "Davis",
        "active": true,
        "role": "moderator",
        "createdAt": "2024-12-19T18:29:19.243Z"
      },
      {
        "id": 22,
        "username": "user22",
        "email": "user22@example.com",
        "firstName": "John",
        "lastName": "Smith",
        "active": true,
        "role": "admin",
        "createdAt": "2024-10-28T01:13:27.643Z"
      },
      {
        "id": 23,
        "username": "user23",
        "email": "user23@example.com",
        "firstName": "Jane",
        "lastName": "Smith",
        "active": false,
        "role": "admin",
        "createdAt": "2024-11-10T03:45:25.188Z"
      },
      {
        "id": 24,
        "username": "user24",
        "email": "user24@example.com",
        "firstName": "Jane",
        "lastName": "Smith",
        "active": false,
        "role": "user",
        "createdAt": "2025-10-01T10:39:00.161Z"
      },
      {
        "id": 25,
        "username": "user25",
        "email": "user25@example.com",
        "firstName": "John",
        "lastName": "Smith",
        "active": true,
        "role": "user",
        "createdAt": "2025-04-03T15:19:35.209Z"
      }
    ]
  },
  "pagination": {
    "page": 1,
    "limit": 25,
    "total": 250,
    "totalPages": 10,
    "hasNext": true,
    "hasPrev": false
  },
  "meta": {
    "version": "2.0",
    "documentation": "https://api.example.com/docs",
    "rateLimiting": {
      "remaining": 995,
      "reset": "2025-10-23T05:51:14.722Z"
    }
  }
}