{
  "success": true,
  "timestamp": "2025-10-21T06:10:43.312Z",
  "requestId": "req_effd72q97n8",
  "data": {
    "users": [
      {
        "id": 1,
        "username": "user1",
        "email": "user1@example.com",
        "firstName": "Jane",
        "lastName": "Davis",
        "active": true,
        "role": "user",
        "createdAt": "2025-03-22T06:04:22.633Z"
      },
      {
        "id": 2,
        "username": "user2",
        "email": "user2@example.com",
        "firstName": "Carol",
        "lastName": "Wilson",
        "active": true,
        "role": "moderator",
        "createdAt": "2025-04-30T00:17:44.724Z"
      },
      {
        "id": 3,
        "username": "user3",
        "email": "user3@example.com",
        "firstName": "John",
        "lastName": "Brown",
        "active": true,
        "role": "admin",
        "createdAt": "2025-06-16T04:24:06.979Z"
      },
      {
        "id": 4,
        "username": "user4",
        "email": "user4@example.com",
        "firstName": "Carol",
        "lastName": "Davis",
        "active": true,
        "role": "user",
        "createdAt": "2025-02-28T19:19:21.358Z"
      },
      {
        "id": 5,
        "username": "user5",
        "email": "user5@example.com",
        "firstName": "John",
        "lastName": "Smith",
        "active": true,
        "role": "admin",
        "createdAt": "2025-07-20T18:31:02.300Z"
      },
      {
        "id": 6,
        "username": "user6",
        "email": "user6@example.com",
        "firstName": "Alice",
        "lastName": "Johnson",
        "active": true,
        "role": "user",
        "createdAt": "2025-01-04T03:01:19.915Z"
      },
      {
        "id": 7,
        "username": "user7",
        "email": "user7@example.com",
        "firstName": "Carol",
        "lastName": "Johnson",
        "active": false,
        "role": "moderator",
        "createdAt": "2025-05-28T09:17:55.020Z"
      },
      {
        "id": 8,
        "username": "user8",
        "email": "user8@example.com",
        "firstName": "Bob",
        "lastName": "Johnson",
        "active": true,
        "role": "admin",
        "createdAt": "2025-07-15T02:17:17.932Z"
      },
      {
        "id": 9,
        "username": "user9",
        "email": "user9@example.com",
        "firstName": "Carol",
        "lastName": "Brown",
        "active": true,
        "role": "user",
        "createdAt": "2024-12-17T00:41:56.801Z"
      },
      {
        "id": 10,
        "username": "user10",
        "email": "user10@example.com",
        "firstName": "John",
        "lastName": "Davis",
        "active": true,
        "role": "user",
        "createdAt": "2025-08-31T11:22:00.476Z"
      },
      {
        "id": 11,
        "username": "user11",
        "email": "user11@example.com",
        "firstName": "Carol",
        "lastName": "Smith",
        "active": true,
        "role": "user",
        "createdAt": "2024-11-16T02:27:10.978Z"
      },
      {
        "id": 12,
        "username": "user12",
        "email": "user12@example.com",
        "firstName": "Alice",
        "lastName": "Wilson",
        "active": false,
        "role": "user",
        "createdAt": "2024-12-10T00:39:09.632Z"
      },
      {
        "id": 13,
        "username": "user13",
        "email": "user13@example.com",
        "firstName": "Carol",
        "lastName": "Davis",
        "active": true,
        "role": "user",
        "createdAt": "2025-03-19T17:15:59.381Z"
      },
      {
        "id": 14,
        "username": "user14",
        "email": "user14@example.com",
        "firstName": "Jane",
        "lastName": "Wilson",
        "active": true,
        "role": "admin",
        "createdAt": "2025-01-31T13:08:50.904Z"
      },
      {
        "id": 15,
        "username": "user15",
        "email": "user15@example.com",
        "firstName": "Carol",
        "lastName": "Wilson",
        "active": true,
        "role": "admin",
        "createdAt": "2025-01-11T05:11:37.589Z"
      },
      {
        "id": 16,
        "username": "user16",
        "email": "user16@example.com",
        "firstName": "Bob",
        "lastName": "Wilson",
        "active": true,
        "role": "moderator",
        "createdAt": "2025-07-12T20:36:04.431Z"
      },
      {
        "id": 17,
        "username": "user17",
        "email": "user17@example.com",
        "firstName": "Alice",
        "lastName": "Smith",
        "active": true,
        "role": "user",
        "createdAt": "2025-01-08T13:02:33.779Z"
      },
      {
        "id": 18,
        "username": "user18",
        "email": "user18@example.com",
        "firstName": "Jane",
        "lastName": "Wilson",
        "active": true,
        "role": "user",
        "createdAt": "2025-07-18T17:15:11.046Z"
      },
      {
        "id": 19,
        "username": "user19",
        "email": "user19@example.com",
        "firstName": "Alice",
        "lastName": "Davis",
        "active": true,
        "role": "moderator",
        "createdAt": "2025-08-09T04:04:18.499Z"
      },
      {
        "id": 20,
        "username": "user20",
        "email": "user20@example.com",
        "firstName": "Bob",
        "lastName": "Johnson",
        "active": true,
        "role": "moderator",
        "createdAt": "2025-10-17T01:29:09.508Z"
      },
      {
        "id": 21,
        "username": "user21",
        "email": "user21@example.com",
        "firstName": "Alice",
        "lastName": "Davis",
        "active": true,
        "role": "moderator",
        "createdAt": "2024-11-22T09:01:28.038Z"
      },
      {
        "id": 22,
        "username": "user22",
        "email": "user22@example.com",
        "firstName": "Bob",
        "lastName": "Wilson",
        "active": true,
        "role": "user",
        "createdAt": "2025-05-05T13:17:48.918Z"
      },
      {
        "id": 23,
        "username": "user23",
        "email": "user23@example.com",
        "firstName": "Carol",
        "lastName": "Davis",
        "active": true,
        "role": "moderator",
        "createdAt": "2024-11-09T04:20:23.931Z"
      },
      {
        "id": 24,
        "username": "user24",
        "email": "user24@example.com",
        "firstName": "Carol",
        "lastName": "Brown",
        "active": false,
        "role": "user",
        "createdAt": "2025-01-23T11:56:32.106Z"
      },
      {
        "id": 25,
        "username": "user25",
        "email": "user25@example.com",
        "firstName": "John",
        "lastName": "Smith",
        "active": true,
        "role": "user",
        "createdAt": "2025-03-18T06:18:54.535Z"
      }
    ]
  },
  "pagination": {
    "page": 1,
    "limit": 25,
    "total": 250,
    "totalPages": 10,
    "hasNext": true,
    "hasPrev": false
  },
  "meta": {
    "version": "2.0",
    "documentation": "https://api.example.com/docs",
    "rateLimiting": {
      "remaining": 995,
      "reset": "2025-10-21T07:10:43.312Z"
    }
  }
}