{"success":true,"timestamp":"2025-10-23T14:33:00.724Z","requestId":"req_wajpbk8o7z","data":{"users":[{"id":1,"username":"user1","email":"user1@example.com","firstName":"Alice","lastName":"Johnson","active":true,"role":"moderator","createdAt":"2025-07-30T14:26:12.288Z"},{"id":2,"username":"user2","email":"user2@example.com","firstName":"Carol","lastName":"Smith","active":false,"role":"moderator","createdAt":"2025-05-27T10:32:54.325Z"},{"id":3,"username":"user3","email":"user3@example.com","firstName":"Alice","lastName":"Wilson","active":true,"role":"user","createdAt":"2025-04-03T20:13:41.542Z"},{"id":4,"username":"user4","email":"user4@example.com","firstName":"Bob","lastName":"Brown","active":true,"role":"admin","createdAt":"2025-04-23T23:54:35.749Z"},{"id":5,"username":"user5","email":"user5@example.com","firstName":"John","lastName":"Johnson","active":true,"role":"admin","createdAt":"2024-11-24T00:15:00.748Z"},{"id":6,"username":"user6","email":"user6@example.com","firstName":"Carol","lastName":"Brown","active":true,"role":"moderator","createdAt":"2025-09-12T08:06:23.626Z"},{"id":7,"username":"user7","email":"user7@example.com","firstName":"Carol","lastName":"Smith","active":true,"role":"admin","createdAt":"2025-03-11T23:08:14.062Z"},{"id":8,"username":"user8","email":"user8@example.com","firstName":"Bob","lastName":"Johnson","active":true,"role":"moderator","createdAt":"2025-03-13T13:42:30.350Z"},{"id":9,"username":"user9","email":"user9@example.com","firstName":"Carol","lastName":"Wilson","active":true,"role":"moderator","createdAt":"2024-11-07T07:58:13.580Z"},{"id":10,"username":"user10","email":"user10@example.com","firstName":"Alice","lastName":"Brown","active":true,"role":"moderator","createdAt":"2025-05-17T14:52:00.725Z"},{"id":11,"username":"user11","email":"user11@example.com","firstName":"Jane","lastName":"Smith","active":false,"role":"moderator","createdAt":"2025-08-03T11:42:40.855Z"},{"id":12,"username":"user12","email":"user12@example.com","firstName":"Carol","lastName":"Johnson","active":true,"role":"moderator","createdAt":"2025-06-08T01:38:59.728Z"},{"id":13,"username":"user13","email":"user13@example.com","firstName":"Carol","lastName":"Smith","active":true,"role":"moderator","createdAt":"2025-05-23T19:56:27.525Z"},{"id":14,"username":"user14","email":"user14@example.com","firstName":"Bob","lastName":"Brown","active":true,"role":"user","createdAt":"2024-12-29T21:25:49.089Z"},{"id":15,"username":"user15","email":"user15@example.com","firstName":"Jane","lastName":"Davis","active":true,"role":"moderator","createdAt":"2025-02-03T17:30:23.268Z"},{"id":16,"username":"user16","email":"user16@example.com","firstName":"Alice","lastName":"Johnson","active":true,"role":"admin","createdAt":"2025-04-02T14:32:01.411Z"},{"id":17,"username":"user17","email":"user17@example.com","firstName":"Bob","lastName":"Smith","active":true,"role":"moderator","createdAt":"2025-08-08T09:51:24.797Z"},{"id":18,"username":"user18","email":"user18@example.com","firstName":"Carol","lastName":"Wilson","active":true,"role":"user","createdAt":"2025-07-04T21:18:51.951Z"},{"id":19,"username":"user19","email":"user19@example.com","firstName":"Jane","lastName":"Brown","active":true,"role":"admin","createdAt":"2025-05-31T20:37:56.490Z"},{"id":20,"username":"user20","email":"user20@example.com","firstName":"Alice","lastName":"Wilson","active":true,"role":"moderator","createdAt":"2025-07-06T07:06:13.721Z"},{"id":21,"username":"user21","email":"user21@example.com","firstName":"Bob","lastName":"Wilson","active":true,"role":"moderator","createdAt":"2025-06-10T04:18:41.802Z"},{"id":22,"username":"user22","email":"user22@example.com","firstName":"John","lastName":"Smith","active":true,"role":"moderator","createdAt":"2025-05-11T14:14:29.805Z"},{"id":23,"username":"user23","email":"user23@example.com","firstName":"Bob","lastName":"Wilson","active":true,"role":"moderator","createdAt":"2025-06-14T00:27:34.176Z"},{"id":24,"username":"user24","email":"user24@example.com","firstName":"Jane","lastName":"Brown","active":false,"role":"moderator","createdAt":"2025-01-31T19:54:14.814Z"},{"id":25,"username":"user25","email":"user25@example.com","firstName":"Jane","lastName":"Smith","active":true,"role":"user","createdAt":"2025-09-04T13:52:48.060Z"}]},"pagination":{"page":1,"limit":25,"total":250,"totalPages":10,"hasNext":true,"hasPrev":false},"meta":{"version":"2.0","documentation":"https://api.example.com/docs","rateLimiting":{"remaining":995,"reset":"2025-10-23T15:33:00.724Z"}}}