{
  "success": true,
  "timestamp": "2025-10-21T06:05:07.180Z",
  "requestId": "req_8ak864mabye",
  "data": {
    "users": [
      {
        "id": 1,
        "username": "user1",
        "email": "user1@example.com",
        "firstName": "Jane",
        "lastName": "Johnson",
        "active": true,
        "role": "admin",
        "createdAt": "2025-04-19T09:30:24.223Z"
      },
      {
        "id": 2,
        "username": "user2",
        "email": "user2@example.com",
        "firstName": "Alice",
        "lastName": "Brown",
        "active": true,
        "role": "admin",
        "createdAt": "2025-03-29T06:03:54.788Z"
      },
      {
        "id": 3,
        "username": "user3",
        "email": "user3@example.com",
        "firstName": "Bob",
        "lastName": "Smith",
        "active": true,
        "role": "admin",
        "createdAt": "2025-07-19T04:42:58.182Z"
      },
      {
        "id": 4,
        "username": "user4",
        "email": "user4@example.com",
        "firstName": "Carol",
        "lastName": "Brown",
        "active": true,
        "role": "moderator",
        "createdAt": "2025-05-16T23:46:40.430Z"
      },
      {
        "id": 5,
        "username": "user5",
        "email": "user5@example.com",
        "firstName": "Carol",
        "lastName": "Davis",
        "active": false,
        "role": "user",
        "createdAt": "2025-07-13T10:41:24.330Z"
      },
      {
        "id": 6,
        "username": "user6",
        "email": "user6@example.com",
        "firstName": "John",
        "lastName": "Johnson",
        "active": false,
        "role": "moderator",
        "createdAt": "2025-03-25T04:01:52.856Z"
      },
      {
        "id": 7,
        "username": "user7",
        "email": "user7@example.com",
        "firstName": "John",
        "lastName": "Brown",
        "active": true,
        "role": "user",
        "createdAt": "2025-02-20T15:23:11.924Z"
      },
      {
        "id": 8,
        "username": "user8",
        "email": "user8@example.com",
        "firstName": "John",
        "lastName": "Johnson",
        "active": true,
        "role": "admin",
        "createdAt": "2025-04-19T04:09:20.180Z"
      },
      {
        "id": 9,
        "username": "user9",
        "email": "user9@example.com",
        "firstName": "John",
        "lastName": "Davis",
        "active": true,
        "role": "moderator",
        "createdAt": "2025-01-23T21:14:06.719Z"
      },
      {
        "id": 10,
        "username": "user10",
        "email": "user10@example.com",
        "firstName": "Carol",
        "lastName": "Davis",
        "active": true,
        "role": "admin",
        "createdAt": "2025-04-14T07:40:07.163Z"
      },
      {
        "id": 11,
        "username": "user11",
        "email": "user11@example.com",
        "firstName": "Jane",
        "lastName": "Johnson",
        "active": true,
        "role": "moderator",
        "createdAt": "2024-11-09T12:24:14.807Z"
      },
      {
        "id": 12,
        "username": "user12",
        "email": "user12@example.com",
        "firstName": "Jane",
        "lastName": "Wilson",
        "active": true,
        "role": "admin",
        "createdAt": "2025-09-26T15:07:26.545Z"
      },
      {
        "id": 13,
        "username": "user13",
        "email": "user13@example.com",
        "firstName": "Alice",
        "lastName": "Brown",
        "active": false,
        "role": "moderator",
        "createdAt": "2024-11-15T09:32:32.848Z"
      },
      {
        "id": 14,
        "username": "user14",
        "email": "user14@example.com",
        "firstName": "Alice",
        "lastName": "Brown",
        "active": true,
        "role": "moderator",
        "createdAt": "2024-12-15T10:25:59.213Z"
      },
      {
        "id": 15,
        "username": "user15",
        "email": "user15@example.com",
        "firstName": "Carol",
        "lastName": "Johnson",
        "active": true,
        "role": "user",
        "createdAt": "2024-11-11T21:05:41.486Z"
      },
      {
        "id": 16,
        "username": "user16",
        "email": "user16@example.com",
        "firstName": "Carol",
        "lastName": "Davis",
        "active": true,
        "role": "admin",
        "createdAt": "2025-07-02T23:29:06.720Z"
      },
      {
        "id": 17,
        "username": "user17",
        "email": "user17@example.com",
        "firstName": "Alice",
        "lastName": "Wilson",
        "active": true,
        "role": "user",
        "createdAt": "2025-05-21T02:32:21.182Z"
      },
      {
        "id": 18,
        "username": "user18",
        "email": "user18@example.com",
        "firstName": "Jane",
        "lastName": "Johnson",
        "active": false,
        "role": "moderator",
        "createdAt": "2025-05-08T20:20:12.961Z"
      },
      {
        "id": 19,
        "username": "user19",
        "email": "user19@example.com",
        "firstName": "Bob",
        "lastName": "Davis",
        "active": true,
        "role": "moderator",
        "createdAt": "2025-04-24T22:02:10.612Z"
      },
      {
        "id": 20,
        "username": "user20",
        "email": "user20@example.com",
        "firstName": "Bob",
        "lastName": "Davis",
        "active": true,
        "role": "user",
        "createdAt": "2025-06-25T12:09:16.062Z"
      },
      {
        "id": 21,
        "username": "user21",
        "email": "user21@example.com",
        "firstName": "Bob",
        "lastName": "Wilson",
        "active": true,
        "role": "admin",
        "createdAt": "2025-05-14T02:51:53.042Z"
      },
      {
        "id": 22,
        "username": "user22",
        "email": "user22@example.com",
        "firstName": "Carol",
        "lastName": "Johnson",
        "active": true,
        "role": "admin",
        "createdAt": "2025-05-03T18:57:44.795Z"
      },
      {
        "id": 23,
        "username": "user23",
        "email": "user23@example.com",
        "firstName": "Bob",
        "lastName": "Davis",
        "active": true,
        "role": "user",
        "createdAt": "2025-03-30T21:20:46.278Z"
      },
      {
        "id": 24,
        "username": "user24",
        "email": "user24@example.com",
        "firstName": "Alice",
        "lastName": "Johnson",
        "active": true,
        "role": "admin",
        "createdAt": "2024-12-18T06:32:11.513Z"
      },
      {
        "id": 25,
        "username": "user25",
        "email": "user25@example.com",
        "firstName": "Jane",
        "lastName": "Wilson",
        "active": true,
        "role": "user",
        "createdAt": "2025-08-30T06:13:40.988Z"
      }
    ]
  },
  "pagination": {
    "page": 1,
    "limit": 25,
    "total": 250,
    "totalPages": 10,
    "hasNext": true,
    "hasPrev": false
  },
  "meta": {
    "version": "2.0",
    "documentation": "https://api.example.com/docs",
    "rateLimiting": {
      "remaining": 995,
      "reset": "2025-10-21T07:05:07.180Z"
    }
  }
}