{"success":true,"timestamp":"2025-10-21T04:27:48.806Z","requestId":"req_xmi5t0qks2","data":{"users":[{"id":1,"username":"user1","email":"user1@example.com","firstName":"Carol","lastName":"Davis","active":true,"role":"user","createdAt":"2025-04-15T07:38:21.484Z"},{"id":2,"username":"user2","email":"user2@example.com","firstName":"Carol","lastName":"Brown","active":true,"role":"admin","createdAt":"2025-03-03T17:10:07.231Z"},{"id":3,"username":"user3","email":"user3@example.com","firstName":"Jane","lastName":"Johnson","active":true,"role":"admin","createdAt":"2024-12-12T14:14:30.437Z"},{"id":4,"username":"user4","email":"user4@example.com","firstName":"Jane","lastName":"Wilson","active":true,"role":"user","createdAt":"2025-08-25T12:34:43.027Z"},{"id":5,"username":"user5","email":"user5@example.com","firstName":"Jane","lastName":"Brown","active":false,"role":"moderator","createdAt":"2025-06-27T11:23:06.107Z"},{"id":6,"username":"user6","email":"user6@example.com","firstName":"Jane","lastName":"Brown","active":true,"role":"admin","createdAt":"2025-07-03T04:42:57.886Z"},{"id":7,"username":"user7","email":"user7@example.com","firstName":"Alice","lastName":"Wilson","active":true,"role":"user","createdAt":"2025-08-28T08:36:45.722Z"},{"id":8,"username":"user8","email":"user8@example.com","firstName":"Jane","lastName":"Wilson","active":true,"role":"admin","createdAt":"2025-05-15T17:25:03.552Z"},{"id":9,"username":"user9","email":"user9@example.com","firstName":"Alice","lastName":"Davis","active":true,"role":"moderator","createdAt":"2025-06-18T04:02:52.388Z"},{"id":10,"username":"user10","email":"user10@example.com","firstName":"Alice","lastName":"Brown","active":true,"role":"moderator","createdAt":"2025-03-25T19:57:36.900Z"},{"id":11,"username":"user11","email":"user11@example.com","firstName":"Jane","lastName":"Brown","active":true,"role":"admin","createdAt":"2025-10-07T13:55:29.421Z"},{"id":12,"username":"user12","email":"user12@example.com","firstName":"Jane","lastName":"Brown","active":false,"role":"admin","createdAt":"2025-10-03T08:43:55.503Z"},{"id":13,"username":"user13","email":"user13@example.com","firstName":"Carol","lastName":"Johnson","active":true,"role":"moderator","createdAt":"2025-08-05T14:09:41.453Z"},{"id":14,"username":"user14","email":"user14@example.com","firstName":"Carol","lastName":"Smith","active":false,"role":"admin","createdAt":"2024-12-13T00:41:57.564Z"},{"id":15,"username":"user15","email":"user15@example.com","firstName":"John","lastName":"Wilson","active":true,"role":"user","createdAt":"2025-08-07T21:55:32.538Z"},{"id":16,"username":"user16","email":"user16@example.com","firstName":"John","lastName":"Davis","active":true,"role":"user","createdAt":"2024-12-26T04:55:20.161Z"},{"id":17,"username":"user17","email":"user17@example.com","firstName":"Bob","lastName":"Wilson","active":true,"role":"user","createdAt":"2025-08-27T06:43:00.124Z"},{"id":18,"username":"user18","email":"user18@example.com","firstName":"Jane","lastName":"Smith","active":true,"role":"moderator","createdAt":"2025-01-31T04:09:44.139Z"},{"id":19,"username":"user19","email":"user19@example.com","firstName":"Jane","lastName":"Smith","active":true,"role":"admin","createdAt":"2024-12-12T15:21:32.306Z"},{"id":20,"username":"user20","email":"user20@example.com","firstName":"John","lastName":"Smith","active":true,"role":"moderator","createdAt":"2025-05-12T10:47:05.392Z"},{"id":21,"username":"user21","email":"user21@example.com","firstName":"Bob","lastName":"Brown","active":true,"role":"moderator","createdAt":"2025-07-13T06:52:09.527Z"},{"id":22,"username":"user22","email":"user22@example.com","firstName":"Jane","lastName":"Smith","active":true,"role":"admin","createdAt":"2025-07-27T07:25:35.224Z"},{"id":23,"username":"user23","email":"user23@example.com","firstName":"Bob","lastName":"Johnson","active":true,"role":"moderator","createdAt":"2025-06-09T04:38:21.614Z"},{"id":24,"username":"user24","email":"user24@example.com","firstName":"John","lastName":"Smith","active":true,"role":"moderator","createdAt":"2024-11-11T06:41:57.767Z"},{"id":25,"username":"user25","email":"user25@example.com","firstName":"Bob","lastName":"Smith","active":true,"role":"user","createdAt":"2025-10-12T12:56:46.182Z"}]},"pagination":{"page":1,"limit":25,"total":250,"totalPages":10,"hasNext":true,"hasPrev":false},"meta":{"version":"2.0","documentation":"https://api.example.com/docs","rateLimiting":{"remaining":995,"reset":"2025-10-21T05:27:48.806Z"}}}