{"success":true,"timestamp":"2025-10-23T14:31:21.946Z","requestId":"req_sj4ncta3tne","data":{"users":[{"id":1,"username":"user1","email":"user1@example.com","firstName":"Carol","lastName":"Brown","active":true,"role":"moderator","createdAt":"2025-03-16T21:59:23.776Z"},{"id":2,"username":"user2","email":"user2@example.com","firstName":"Bob","lastName":"Johnson","active":true,"role":"user","createdAt":"2024-11-06T20:58:43.663Z"},{"id":3,"username":"user3","email":"user3@example.com","firstName":"Jane","lastName":"Smith","active":true,"role":"moderator","createdAt":"2025-03-26T05:38:16.477Z"},{"id":4,"username":"user4","email":"user4@example.com","firstName":"Alice","lastName":"Smith","active":false,"role":"user","createdAt":"2025-06-18T22:43:58.746Z"},{"id":5,"username":"user5","email":"user5@example.com","firstName":"Carol","lastName":"Smith","active":false,"role":"user","createdAt":"2025-05-07T15:33:09.434Z"},{"id":6,"username":"user6","email":"user6@example.com","firstName":"Bob","lastName":"Johnson","active":true,"role":"moderator","createdAt":"2025-09-16T13:32:15.645Z"},{"id":7,"username":"user7","email":"user7@example.com","firstName":"Bob","lastName":"Johnson","active":true,"role":"admin","createdAt":"2025-03-05T01:56:58.516Z"},{"id":8,"username":"user8","email":"user8@example.com","firstName":"Carol","lastName":"Smith","active":false,"role":"moderator","createdAt":"2025-01-24T10:32:05.646Z"},{"id":9,"username":"user9","email":"user9@example.com","firstName":"John","lastName":"Wilson","active":true,"role":"user","createdAt":"2025-01-19T19:55:30.880Z"},{"id":10,"username":"user10","email":"user10@example.com","firstName":"Jane","lastName":"Wilson","active":true,"role":"moderator","createdAt":"2025-03-01T04:42:26.667Z"},{"id":11,"username":"user11","email":"user11@example.com","firstName":"John","lastName":"Johnson","active":false,"role":"moderator","createdAt":"2025-06-24T10:58:51.470Z"},{"id":12,"username":"user12","email":"user12@example.com","firstName":"Alice","lastName":"Wilson","active":false,"role":"moderator","createdAt":"2025-03-18T22:14:47.513Z"},{"id":13,"username":"user13","email":"user13@example.com","firstName":"Bob","lastName":"Davis","active":false,"role":"admin","createdAt":"2025-07-24T09:57:00.282Z"},{"id":14,"username":"user14","email":"user14@example.com","firstName":"John","lastName":"Davis","active":true,"role":"admin","createdAt":"2024-11-20T16:39:44.884Z"},{"id":15,"username":"user15","email":"user15@example.com","firstName":"John","lastName":"Davis","active":false,"role":"user","createdAt":"2025-02-15T19:12:41.291Z"},{"id":16,"username":"user16","email":"user16@example.com","firstName":"John","lastName":"Wilson","active":true,"role":"moderator","createdAt":"2025-01-09T08:41:56.589Z"},{"id":17,"username":"user17","email":"user17@example.com","firstName":"Jane","lastName":"Wilson","active":true,"role":"user","createdAt":"2025-09-01T20:32:32.934Z"},{"id":18,"username":"user18","email":"user18@example.com","firstName":"Carol","lastName":"Smith","active":false,"role":"user","createdAt":"2025-10-10T09:26:31.397Z"},{"id":19,"username":"user19","email":"user19@example.com","firstName":"Alice","lastName":"Wilson","active":false,"role":"moderator","createdAt":"2025-02-05T22:07:25.097Z"},{"id":20,"username":"user20","email":"user20@example.com","firstName":"Jane","lastName":"Brown","active":true,"role":"admin","createdAt":"2025-10-06T04:17:48.805Z"},{"id":21,"username":"user21","email":"user21@example.com","firstName":"Carol","lastName":"Smith","active":true,"role":"moderator","createdAt":"2025-05-25T02:37:50.797Z"},{"id":22,"username":"user22","email":"user22@example.com","firstName":"Bob","lastName":"Wilson","active":true,"role":"admin","createdAt":"2025-09-21T06:36:21.513Z"},{"id":23,"username":"user23","email":"user23@example.com","firstName":"Bob","lastName":"Davis","active":true,"role":"user","createdAt":"2025-08-18T20:31:08.770Z"},{"id":24,"username":"user24","email":"user24@example.com","firstName":"Jane","lastName":"Brown","active":true,"role":"admin","createdAt":"2025-03-23T06:37:27.183Z"},{"id":25,"username":"user25","email":"user25@example.com","firstName":"Jane","lastName":"Davis","active":false,"role":"user","createdAt":"2025-04-23T00:37:41.110Z"}]},"pagination":{"page":1,"limit":25,"total":250,"totalPages":10,"hasNext":true,"hasPrev":false},"meta":{"version":"2.0","documentation":"https://api.example.com/docs","rateLimiting":{"remaining":995,"reset":"2025-10-23T15:31:21.946Z"}}}