{
  "success": true,
  "timestamp": "2025-10-21T06:05:15.367Z",
  "requestId": "req_250nlll6srb",
  "data": {
    "users": [
      {
        "id": 1,
        "username": "user1",
        "email": "user1@example.com",
        "firstName": "Bob",
        "lastName": "Brown",
        "active": true,
        "role": "user",
        "createdAt": "2025-06-11T00:25:12.518Z"
      },
      {
        "id": 2,
        "username": "user2",
        "email": "user2@example.com",
        "firstName": "John",
        "lastName": "Brown",
        "active": false,
        "role": "admin",
        "createdAt": "2025-08-08T15:10:22.016Z"
      },
      {
        "id": 3,
        "username": "user3",
        "email": "user3@example.com",
        "firstName": "Jane",
        "lastName": "Johnson",
        "active": true,
        "role": "user",
        "createdAt": "2025-04-27T11:17:43.388Z"
      },
      {
        "id": 4,
        "username": "user4",
        "email": "user4@example.com",
        "firstName": "Alice",
        "lastName": "Smith",
        "active": true,
        "role": "moderator",
        "createdAt": "2025-05-09T08:35:24.325Z"
      },
      {
        "id": 5,
        "username": "user5",
        "email": "user5@example.com",
        "firstName": "John",
        "lastName": "Wilson",
        "active": false,
        "role": "moderator",
        "createdAt": "2024-12-04T04:27:05.690Z"
      },
      {
        "id": 6,
        "username": "user6",
        "email": "user6@example.com",
        "firstName": "Carol",
        "lastName": "Davis",
        "active": true,
        "role": "admin",
        "createdAt": "2025-02-02T02:10:28.848Z"
      },
      {
        "id": 7,
        "username": "user7",
        "email": "user7@example.com",
        "firstName": "John",
        "lastName": "Brown",
        "active": true,
        "role": "moderator",
        "createdAt": "2025-02-10T15:49:23.524Z"
      },
      {
        "id": 8,
        "username": "user8",
        "email": "user8@example.com",
        "firstName": "John",
        "lastName": "Brown",
        "active": true,
        "role": "moderator",
        "createdAt": "2025-10-13T03:19:18.198Z"
      },
      {
        "id": 9,
        "username": "user9",
        "email": "user9@example.com",
        "firstName": "Jane",
        "lastName": "Davis",
        "active": true,
        "role": "user",
        "createdAt": "2025-05-07T21:22:33.153Z"
      },
      {
        "id": 10,
        "username": "user10",
        "email": "user10@example.com",
        "firstName": "Carol",
        "lastName": "Davis",
        "active": true,
        "role": "admin",
        "createdAt": "2025-07-12T07:32:51.181Z"
      },
      {
        "id": 11,
        "username": "user11",
        "email": "user11@example.com",
        "firstName": "John",
        "lastName": "Wilson",
        "active": true,
        "role": "admin",
        "createdAt": "2025-01-18T21:01:44.553Z"
      },
      {
        "id": 12,
        "username": "user12",
        "email": "user12@example.com",
        "firstName": "Carol",
        "lastName": "Brown",
        "active": false,
        "role": "moderator",
        "createdAt": "2025-02-26T12:51:54.313Z"
      },
      {
        "id": 13,
        "username": "user13",
        "email": "user13@example.com",
        "firstName": "Bob",
        "lastName": "Davis",
        "active": false,
        "role": "admin",
        "createdAt": "2025-10-06T04:01:23.341Z"
      },
      {
        "id": 14,
        "username": "user14",
        "email": "user14@example.com",
        "firstName": "Carol",
        "lastName": "Johnson",
        "active": true,
        "role": "admin",
        "createdAt": "2025-06-21T13:08:26.858Z"
      },
      {
        "id": 15,
        "username": "user15",
        "email": "user15@example.com",
        "firstName": "Bob",
        "lastName": "Wilson",
        "active": true,
        "role": "moderator",
        "createdAt": "2025-09-06T00:01:34.526Z"
      },
      {
        "id": 16,
        "username": "user16",
        "email": "user16@example.com",
        "firstName": "Bob",
        "lastName": "Smith",
        "active": true,
        "role": "moderator",
        "createdAt": "2024-12-12T02:26:15.431Z"
      },
      {
        "id": 17,
        "username": "user17",
        "email": "user17@example.com",
        "firstName": "Carol",
        "lastName": "Brown",
        "active": true,
        "role": "admin",
        "createdAt": "2025-08-29T09:56:51.302Z"
      },
      {
        "id": 18,
        "username": "user18",
        "email": "user18@example.com",
        "firstName": "John",
        "lastName": "Johnson",
        "active": true,
        "role": "moderator",
        "createdAt": "2025-04-07T08:38:47.391Z"
      },
      {
        "id": 19,
        "username": "user19",
        "email": "user19@example.com",
        "firstName": "Bob",
        "lastName": "Johnson",
        "active": true,
        "role": "moderator",
        "createdAt": "2025-08-09T16:50:08.167Z"
      },
      {
        "id": 20,
        "username": "user20",
        "email": "user20@example.com",
        "firstName": "Bob",
        "lastName": "Davis",
        "active": true,
        "role": "admin",
        "createdAt": "2025-02-28T17:15:57.056Z"
      },
      {
        "id": 21,
        "username": "user21",
        "email": "user21@example.com",
        "firstName": "Jane",
        "lastName": "Davis",
        "active": true,
        "role": "moderator",
        "createdAt": "2024-12-15T13:20:03.548Z"
      },
      {
        "id": 22,
        "username": "user22",
        "email": "user22@example.com",
        "firstName": "John",
        "lastName": "Wilson",
        "active": true,
        "role": "user",
        "createdAt": "2024-11-11T16:03:20.363Z"
      },
      {
        "id": 23,
        "username": "user23",
        "email": "user23@example.com",
        "firstName": "Jane",
        "lastName": "Johnson",
        "active": false,
        "role": "user",
        "createdAt": "2025-05-18T02:26:27.815Z"
      },
      {
        "id": 24,
        "username": "user24",
        "email": "user24@example.com",
        "firstName": "Alice",
        "lastName": "Johnson",
        "active": true,
        "role": "moderator",
        "createdAt": "2025-06-30T11:19:06.691Z"
      },
      {
        "id": 25,
        "username": "user25",
        "email": "user25@example.com",
        "firstName": "Alice",
        "lastName": "Wilson",
        "active": false,
        "role": "moderator",
        "createdAt": "2025-08-03T15:59:35.720Z"
      }
    ]
  },
  "pagination": {
    "page": 1,
    "limit": 25,
    "total": 250,
    "totalPages": 10,
    "hasNext": true,
    "hasPrev": false
  },
  "meta": {
    "version": "2.0",
    "documentation": "https://api.example.com/docs",
    "rateLimiting": {
      "remaining": 995,
      "reset": "2025-10-21T07:05:15.367Z"
    }
  }
}