{"success":true,"timestamp":"2025-10-23T14:33:01.078Z","requestId":"req_nx2kuwluj9","data":{"users":[{"id":1,"username":"user1","email":"user1@example.com","firstName":"Jane","lastName":"Wilson","active":true,"role":"admin","createdAt":"2025-07-11T21:19:56.662Z"},{"id":2,"username":"user2","email":"user2@example.com","firstName":"Carol","lastName":"Brown","active":true,"role":"user","createdAt":"2025-08-09T06:25:36.407Z"},{"id":3,"username":"user3","email":"user3@example.com","firstName":"Carol","lastName":"Wilson","active":true,"role":"moderator","createdAt":"2025-10-07T06:41:07.352Z"},{"id":4,"username":"user4","email":"user4@example.com","firstName":"John","lastName":"Davis","active":true,"role":"user","createdAt":"2024-12-30T13:35:19.148Z"},{"id":5,"username":"user5","email":"user5@example.com","firstName":"Bob","lastName":"Brown","active":true,"role":"user","createdAt":"2024-12-06T07:57:58.126Z"},{"id":6,"username":"user6","email":"user6@example.com","firstName":"Carol","lastName":"Johnson","active":true,"role":"user","createdAt":"2025-03-13T03:51:47.640Z"},{"id":7,"username":"user7","email":"user7@example.com","firstName":"Alice","lastName":"Wilson","active":true,"role":"user","createdAt":"2025-01-15T14:56:18.895Z"},{"id":8,"username":"user8","email":"user8@example.com","firstName":"Alice","lastName":"Brown","active":true,"role":"admin","createdAt":"2024-11-27T23:09:29.584Z"},{"id":9,"username":"user9","email":"user9@example.com","firstName":"Carol","lastName":"Davis","active":false,"role":"admin","createdAt":"2025-03-21T03:03:46.912Z"},{"id":10,"username":"user10","email":"user10@example.com","firstName":"Bob","lastName":"Wilson","active":false,"role":"moderator","createdAt":"2025-03-25T01:08:52.817Z"},{"id":11,"username":"user11","email":"user11@example.com","firstName":"Jane","lastName":"Wilson","active":true,"role":"admin","createdAt":"2024-11-19T01:13:40.781Z"},{"id":12,"username":"user12","email":"user12@example.com","firstName":"Jane","lastName":"Smith","active":false,"role":"admin","createdAt":"2025-07-08T14:50:21.946Z"},{"id":13,"username":"user13","email":"user13@example.com","firstName":"Carol","lastName":"Johnson","active":true,"role":"moderator","createdAt":"2025-04-13T21:49:01.565Z"},{"id":14,"username":"user14","email":"user14@example.com","firstName":"Bob","lastName":"Davis","active":false,"role":"moderator","createdAt":"2025-09-17T05:51:00.242Z"},{"id":15,"username":"user15","email":"user15@example.com","firstName":"Jane","lastName":"Johnson","active":true,"role":"user","createdAt":"2025-08-19T10:23:41.843Z"},{"id":16,"username":"user16","email":"user16@example.com","firstName":"John","lastName":"Davis","active":true,"role":"user","createdAt":"2025-07-09T06:30:30.790Z"},{"id":17,"username":"user17","email":"user17@example.com","firstName":"John","lastName":"Smith","active":true,"role":"moderator","createdAt":"2025-07-13T22:31:36.420Z"},{"id":18,"username":"user18","email":"user18@example.com","firstName":"Alice","lastName":"Brown","active":true,"role":"admin","createdAt":"2025-02-16T16:35:49.399Z"},{"id":19,"username":"user19","email":"user19@example.com","firstName":"Jane","lastName":"Wilson","active":true,"role":"admin","createdAt":"2025-06-15T08:28:26.682Z"},{"id":20,"username":"user20","email":"user20@example.com","firstName":"Bob","lastName":"Brown","active":true,"role":"user","createdAt":"2025-04-05T19:13:38.699Z"},{"id":21,"username":"user21","email":"user21@example.com","firstName":"Bob","lastName":"Johnson","active":true,"role":"user","createdAt":"2025-09-09T22:18:50.793Z"},{"id":22,"username":"user22","email":"user22@example.com","firstName":"Alice","lastName":"Johnson","active":true,"role":"moderator","createdAt":"2025-04-04T00:36:14.374Z"},{"id":23,"username":"user23","email":"user23@example.com","firstName":"John","lastName":"Brown","active":true,"role":"user","createdAt":"2025-08-27T04:40:58.405Z"},{"id":24,"username":"user24","email":"user24@example.com","firstName":"Alice","lastName":"Johnson","active":false,"role":"admin","createdAt":"2025-01-24T11:01:41.091Z"},{"id":25,"username":"user25","email":"user25@example.com","firstName":"John","lastName":"Smith","active":true,"role":"user","createdAt":"2025-10-21T06:40:17.355Z"}]},"pagination":{"page":1,"limit":25,"total":250,"totalPages":10,"hasNext":true,"hasPrev":false},"meta":{"version":"2.0","documentation":"https://api.example.com/docs","rateLimiting":{"remaining":995,"reset":"2025-10-23T15:33:01.078Z"}}}