{"success":true,"timestamp":"2025-10-23T14:32:12.008Z","requestId":"req_yndlsh4g5b","data":{"users":[{"id":1,"username":"user1","email":"user1@example.com","firstName":"Bob","lastName":"Davis","active":true,"role":"admin","createdAt":"2025-05-28T18:51:40.135Z"},{"id":2,"username":"user2","email":"user2@example.com","firstName":"Carol","lastName":"Johnson","active":true,"role":"user","createdAt":"2024-11-20T14:14:18.918Z"},{"id":3,"username":"user3","email":"user3@example.com","firstName":"Carol","lastName":"Johnson","active":true,"role":"user","createdAt":"2025-08-04T10:39:01.225Z"},{"id":4,"username":"user4","email":"user4@example.com","firstName":"Carol","lastName":"Johnson","active":true,"role":"admin","createdAt":"2025-08-15T23:50:23.904Z"},{"id":5,"username":"user5","email":"user5@example.com","firstName":"Jane","lastName":"Smith","active":true,"role":"user","createdAt":"2025-06-16T12:18:31.786Z"},{"id":6,"username":"user6","email":"user6@example.com","firstName":"John","lastName":"Johnson","active":true,"role":"moderator","createdAt":"2025-02-11T18:19:20.024Z"},{"id":7,"username":"user7","email":"user7@example.com","firstName":"Alice","lastName":"Wilson","active":false,"role":"moderator","createdAt":"2025-06-05T01:18:49.432Z"},{"id":8,"username":"user8","email":"user8@example.com","firstName":"Carol","lastName":"Brown","active":true,"role":"admin","createdAt":"2024-11-06T17:08:11.617Z"},{"id":9,"username":"user9","email":"user9@example.com","firstName":"Bob","lastName":"Brown","active":false,"role":"admin","createdAt":"2025-02-03T21:17:23.189Z"},{"id":10,"username":"user10","email":"user10@example.com","firstName":"Bob","lastName":"Wilson","active":true,"role":"admin","createdAt":"2025-10-06T11:20:38.691Z"},{"id":11,"username":"user11","email":"user11@example.com","firstName":"Jane","lastName":"Brown","active":false,"role":"moderator","createdAt":"2024-10-28T01:49:00.266Z"},{"id":12,"username":"user12","email":"user12@example.com","firstName":"Carol","lastName":"Smith","active":true,"role":"moderator","createdAt":"2024-11-02T21:47:02.651Z"},{"id":13,"username":"user13","email":"user13@example.com","firstName":"Bob","lastName":"Johnson","active":true,"role":"user","createdAt":"2025-07-29T15:56:29.468Z"},{"id":14,"username":"user14","email":"user14@example.com","firstName":"Alice","lastName":"Smith","active":true,"role":"moderator","createdAt":"2025-04-30T07:18:32.721Z"},{"id":15,"username":"user15","email":"user15@example.com","firstName":"Jane","lastName":"Smith","active":false,"role":"admin","createdAt":"2025-01-12T21:58:05.919Z"},{"id":16,"username":"user16","email":"user16@example.com","firstName":"Carol","lastName":"Davis","active":true,"role":"admin","createdAt":"2025-07-07T05:34:44.386Z"},{"id":17,"username":"user17","email":"user17@example.com","firstName":"Bob","lastName":"Johnson","active":true,"role":"moderator","createdAt":"2025-10-01T02:11:00.228Z"},{"id":18,"username":"user18","email":"user18@example.com","firstName":"Carol","lastName":"Brown","active":false,"role":"user","createdAt":"2024-12-13T18:26:57.335Z"},{"id":19,"username":"user19","email":"user19@example.com","firstName":"Bob","lastName":"Brown","active":true,"role":"moderator","createdAt":"2025-10-22T10:18:23.617Z"},{"id":20,"username":"user20","email":"user20@example.com","firstName":"Carol","lastName":"Brown","active":true,"role":"admin","createdAt":"2024-10-29T19:06:17.760Z"},{"id":21,"username":"user21","email":"user21@example.com","firstName":"Bob","lastName":"Davis","active":true,"role":"admin","createdAt":"2025-10-09T02:18:15.380Z"},{"id":22,"username":"user22","email":"user22@example.com","firstName":"Carol","lastName":"Smith","active":false,"role":"moderator","createdAt":"2025-02-24T01:53:52.980Z"},{"id":23,"username":"user23","email":"user23@example.com","firstName":"Carol","lastName":"Wilson","active":true,"role":"moderator","createdAt":"2024-12-13T07:47:13.757Z"},{"id":24,"username":"user24","email":"user24@example.com","firstName":"Jane","lastName":"Davis","active":false,"role":"user","createdAt":"2025-04-21T01:53:48.636Z"},{"id":25,"username":"user25","email":"user25@example.com","firstName":"Jane","lastName":"Brown","active":true,"role":"admin","createdAt":"2025-08-16T00:17:31.889Z"}]},"pagination":{"page":1,"limit":25,"total":250,"totalPages":10,"hasNext":true,"hasPrev":false},"meta":{"version":"2.0","documentation":"https://api.example.com/docs","rateLimiting":{"remaining":995,"reset":"2025-10-23T15:32:12.009Z"}}}