{
  "success": true,
  "timestamp": "2025-10-21T06:02:47.025Z",
  "requestId": "req_f3ulzuw4akt",
  "data": {
    "users": [
      {
        "id": 1,
        "username": "user1",
        "email": "user1@example.com",
        "firstName": "Jane",
        "lastName": "Smith",
        "active": true,
        "role": "moderator",
        "createdAt": "2025-07-14T23:20:56.087Z"
      },
      {
        "id": 2,
        "username": "user2",
        "email": "user2@example.com",
        "firstName": "Alice",
        "lastName": "Smith",
        "active": true,
        "role": "user",
        "createdAt": "2025-06-05T05:11:47.514Z"
      },
      {
        "id": 3,
        "username": "user3",
        "email": "user3@example.com",
        "firstName": "John",
        "lastName": "Johnson",
        "active": true,
        "role": "user",
        "createdAt": "2025-03-05T02:17:22.331Z"
      },
      {
        "id": 4,
        "username": "user4",
        "email": "user4@example.com",
        "firstName": "Carol",
        "lastName": "Smith",
        "active": true,
        "role": "admin",
        "createdAt": "2025-08-04T14:11:30.954Z"
      },
      {
        "id": 5,
        "username": "user5",
        "email": "user5@example.com",
        "firstName": "Alice",
        "lastName": "Johnson",
        "active": true,
        "role": "moderator",
        "createdAt": "2024-12-30T11:59:56.454Z"
      },
      {
        "id": 6,
        "username": "user6",
        "email": "user6@example.com",
        "firstName": "Carol",
        "lastName": "Davis",
        "active": false,
        "role": "admin",
        "createdAt": "2025-05-23T00:21:12.342Z"
      },
      {
        "id": 7,
        "username": "user7",
        "email": "user7@example.com",
        "firstName": "John",
        "lastName": "Davis",
        "active": false,
        "role": "admin",
        "createdAt": "2025-04-15T11:20:25.608Z"
      },
      {
        "id": 8,
        "username": "user8",
        "email": "user8@example.com",
        "firstName": "Bob",
        "lastName": "Brown",
        "active": true,
        "role": "admin",
        "createdAt": "2024-12-13T06:06:44.915Z"
      },
      {
        "id": 9,
        "username": "user9",
        "email": "user9@example.com",
        "firstName": "Alice",
        "lastName": "Johnson",
        "active": true,
        "role": "moderator",
        "createdAt": "2025-07-13T11:39:00.324Z"
      },
      {
        "id": 10,
        "username": "user10",
        "email": "user10@example.com",
        "firstName": "John",
        "lastName": "Brown",
        "active": true,
        "role": "moderator",
        "createdAt": "2025-10-04T04:07:47.481Z"
      },
      {
        "id": 11,
        "username": "user11",
        "email": "user11@example.com",
        "firstName": "Jane",
        "lastName": "Smith",
        "active": true,
        "role": "user",
        "createdAt": "2024-12-27T20:27:51.078Z"
      },
      {
        "id": 12,
        "username": "user12",
        "email": "user12@example.com",
        "firstName": "Carol",
        "lastName": "Brown",
        "active": false,
        "role": "moderator",
        "createdAt": "2025-09-02T16:16:49.351Z"
      },
      {
        "id": 13,
        "username": "user13",
        "email": "user13@example.com",
        "firstName": "Carol",
        "lastName": "Smith",
        "active": true,
        "role": "moderator",
        "createdAt": "2025-01-06T13:07:42.878Z"
      },
      {
        "id": 14,
        "username": "user14",
        "email": "user14@example.com",
        "firstName": "Jane",
        "lastName": "Brown",
        "active": true,
        "role": "admin",
        "createdAt": "2025-06-29T02:29:54.703Z"
      },
      {
        "id": 15,
        "username": "user15",
        "email": "user15@example.com",
        "firstName": "Bob",
        "lastName": "Davis",
        "active": false,
        "role": "admin",
        "createdAt": "2025-05-28T14:15:03.781Z"
      },
      {
        "id": 16,
        "username": "user16",
        "email": "user16@example.com",
        "firstName": "Bob",
        "lastName": "Smith",
        "active": true,
        "role": "moderator",
        "createdAt": "2024-12-17T12:05:30.686Z"
      },
      {
        "id": 17,
        "username": "user17",
        "email": "user17@example.com",
        "firstName": "Alice",
        "lastName": "Johnson",
        "active": true,
        "role": "moderator",
        "createdAt": "2024-10-27T00:49:10.270Z"
      },
      {
        "id": 18,
        "username": "user18",
        "email": "user18@example.com",
        "firstName": "Carol",
        "lastName": "Smith",
        "active": false,
        "role": "moderator",
        "createdAt": "2024-12-20T04:37:16.790Z"
      },
      {
        "id": 19,
        "username": "user19",
        "email": "user19@example.com",
        "firstName": "John",
        "lastName": "Johnson",
        "active": true,
        "role": "moderator",
        "createdAt": "2025-02-27T04:58:19.310Z"
      },
      {
        "id": 20,
        "username": "user20",
        "email": "user20@example.com",
        "firstName": "Jane",
        "lastName": "Johnson",
        "active": true,
        "role": "user",
        "createdAt": "2025-03-03T11:30:19.323Z"
      },
      {
        "id": 21,
        "username": "user21",
        "email": "user21@example.com",
        "firstName": "Alice",
        "lastName": "Johnson",
        "active": true,
        "role": "moderator",
        "createdAt": "2024-10-28T20:51:41.425Z"
      },
      {
        "id": 22,
        "username": "user22",
        "email": "user22@example.com",
        "firstName": "Bob",
        "lastName": "Brown",
        "active": true,
        "role": "admin",
        "createdAt": "2024-12-26T13:19:32.485Z"
      },
      {
        "id": 23,
        "username": "user23",
        "email": "user23@example.com",
        "firstName": "Carol",
        "lastName": "Smith",
        "active": true,
        "role": "admin",
        "createdAt": "2024-12-21T13:45:53.708Z"
      },
      {
        "id": 24,
        "username": "user24",
        "email": "user24@example.com",
        "firstName": "Bob",
        "lastName": "Wilson",
        "active": false,
        "role": "user",
        "createdAt": "2025-02-02T19:55:14.468Z"
      },
      {
        "id": 25,
        "username": "user25",
        "email": "user25@example.com",
        "firstName": "Bob",
        "lastName": "Brown",
        "active": true,
        "role": "admin",
        "createdAt": "2024-10-31T21:13:48.128Z"
      }
    ]
  },
  "pagination": {
    "page": 1,
    "limit": 25,
    "total": 250,
    "totalPages": 10,
    "hasNext": true,
    "hasPrev": false
  },
  "meta": {
    "version": "2.0",
    "documentation": "https://api.example.com/docs",
    "rateLimiting": {
      "remaining": 995,
      "reset": "2025-10-21T07:02:47.025Z"
    }
  }
}