{
  "success": true,
  "timestamp": "2025-10-23T14:25:02.696Z",
  "requestId": "req_zmwklgzfrpm",
  "data": {
    "users": [
      {
        "id": 1,
        "username": "user1",
        "email": "user1@example.com",
        "firstName": "Bob",
        "lastName": "Wilson",
        "active": true,
        "role": "user",
        "createdAt": "2025-06-11T14:09:34.820Z"
      },
      {
        "id": 2,
        "username": "user2",
        "email": "user2@example.com",
        "firstName": "Bob",
        "lastName": "Davis",
        "active": true,
        "role": "moderator",
        "createdAt": "2025-08-30T14:36:43.040Z"
      },
      {
        "id": 3,
        "username": "user3",
        "email": "user3@example.com",
        "firstName": "Carol",
        "lastName": "Davis",
        "active": true,
        "role": "moderator",
        "createdAt": "2025-03-12T14:36:32.726Z"
      },
      {
        "id": 4,
        "username": "user4",
        "email": "user4@example.com",
        "firstName": "Alice",
        "lastName": "Brown",
        "active": true,
        "role": "user",
        "createdAt": "2025-06-20T18:20:18.790Z"
      },
      {
        "id": 5,
        "username": "user5",
        "email": "user5@example.com",
        "firstName": "Bob",
        "lastName": "Brown",
        "active": true,
        "role": "moderator",
        "createdAt": "2024-12-16T03:29:09.943Z"
      },
      {
        "id": 6,
        "username": "user6",
        "email": "user6@example.com",
        "firstName": "John",
        "lastName": "Wilson",
        "active": true,
        "role": "admin",
        "createdAt": "2024-11-26T01:40:47.313Z"
      },
      {
        "id": 7,
        "username": "user7",
        "email": "user7@example.com",
        "firstName": "Jane",
        "lastName": "Johnson",
        "active": true,
        "role": "admin",
        "createdAt": "2024-12-07T08:08:16.468Z"
      },
      {
        "id": 8,
        "username": "user8",
        "email": "user8@example.com",
        "firstName": "John",
        "lastName": "Brown",
        "active": true,
        "role": "admin",
        "createdAt": "2025-05-08T21:03:27.557Z"
      },
      {
        "id": 9,
        "username": "user9",
        "email": "user9@example.com",
        "firstName": "Jane",
        "lastName": "Davis",
        "active": true,
        "role": "moderator",
        "createdAt": "2025-07-14T20:05:14.242Z"
      },
      {
        "id": 10,
        "username": "user10",
        "email": "user10@example.com",
        "firstName": "Alice",
        "lastName": "Johnson",
        "active": true,
        "role": "moderator",
        "createdAt": "2025-04-02T09:25:43.856Z"
      },
      {
        "id": 11,
        "username": "user11",
        "email": "user11@example.com",
        "firstName": "Carol",
        "lastName": "Brown",
        "active": true,
        "role": "admin",
        "createdAt": "2025-03-26T10:32:48.756Z"
      },
      {
        "id": 12,
        "username": "user12",
        "email": "user12@example.com",
        "firstName": "John",
        "lastName": "Smith",
        "active": true,
        "role": "admin",
        "createdAt": "2025-04-16T08:43:43.698Z"
      },
      {
        "id": 13,
        "username": "user13",
        "email": "user13@example.com",
        "firstName": "Bob",
        "lastName": "Smith",
        "active": true,
        "role": "admin",
        "createdAt": "2024-11-24T02:38:42.178Z"
      },
      {
        "id": 14,
        "username": "user14",
        "email": "user14@example.com",
        "firstName": "Bob",
        "lastName": "Brown",
        "active": true,
        "role": "admin",
        "createdAt": "2025-06-27T23:04:48.738Z"
      },
      {
        "id": 15,
        "username": "user15",
        "email": "user15@example.com",
        "firstName": "Alice",
        "lastName": "Brown",
        "active": true,
        "role": "admin",
        "createdAt": "2025-07-02T03:57:08.340Z"
      },
      {
        "id": 16,
        "username": "user16",
        "email": "user16@example.com",
        "firstName": "John",
        "lastName": "Davis",
        "active": true,
        "role": "admin",
        "createdAt": "2025-03-20T02:36:59.117Z"
      },
      {
        "id": 17,
        "username": "user17",
        "email": "user17@example.com",
        "firstName": "Bob",
        "lastName": "Brown",
        "active": false,
        "role": "user",
        "createdAt": "2025-08-25T09:59:43.242Z"
      },
      {
        "id": 18,
        "username": "user18",
        "email": "user18@example.com",
        "firstName": "John",
        "lastName": "Davis",
        "active": true,
        "role": "user",
        "createdAt": "2025-06-14T13:39:55.308Z"
      },
      {
        "id": 19,
        "username": "user19",
        "email": "user19@example.com",
        "firstName": "John",
        "lastName": "Smith",
        "active": true,
        "role": "user",
        "createdAt": "2025-01-10T23:46:00.784Z"
      },
      {
        "id": 20,
        "username": "user20",
        "email": "user20@example.com",
        "firstName": "Alice",
        "lastName": "Johnson",
        "active": true,
        "role": "user",
        "createdAt": "2025-05-10T06:14:39.171Z"
      },
      {
        "id": 21,
        "username": "user21",
        "email": "user21@example.com",
        "firstName": "Carol",
        "lastName": "Davis",
        "active": true,
        "role": "user",
        "createdAt": "2025-02-04T05:07:10.219Z"
      },
      {
        "id": 22,
        "username": "user22",
        "email": "user22@example.com",
        "firstName": "Alice",
        "lastName": "Wilson",
        "active": true,
        "role": "admin",
        "createdAt": "2025-06-23T14:24:54.482Z"
      },
      {
        "id": 23,
        "username": "user23",
        "email": "user23@example.com",
        "firstName": "John",
        "lastName": "Smith",
        "active": true,
        "role": "moderator",
        "createdAt": "2025-06-21T12:28:28.030Z"
      },
      {
        "id": 24,
        "username": "user24",
        "email": "user24@example.com",
        "firstName": "Carol",
        "lastName": "Smith",
        "active": true,
        "role": "user",
        "createdAt": "2024-12-27T07:19:24.990Z"
      },
      {
        "id": 25,
        "username": "user25",
        "email": "user25@example.com",
        "firstName": "Bob",
        "lastName": "Smith",
        "active": true,
        "role": "user",
        "createdAt": "2025-10-06T14:31:24.219Z"
      }
    ]
  },
  "pagination": {
    "page": 1,
    "limit": 25,
    "total": 250,
    "totalPages": 10,
    "hasNext": true,
    "hasPrev": false
  },
  "meta": {
    "version": "2.0",
    "documentation": "https://api.example.com/docs",
    "rateLimiting": {
      "remaining": 995,
      "reset": "2025-10-23T15:25:02.696Z"
    }
  }
}