{"success":true,"timestamp":"2025-10-23T14:33:00.714Z","requestId":"req_fqmb31vqx2a","data":{"users":[{"id":1,"username":"user1","email":"user1@example.com","firstName":"Bob","lastName":"Davis","active":true,"role":"user","createdAt":"2025-08-18T22:39:37.250Z"},{"id":2,"username":"user2","email":"user2@example.com","firstName":"Bob","lastName":"Wilson","active":true,"role":"moderator","createdAt":"2025-09-29T06:04:57.910Z"},{"id":3,"username":"user3","email":"user3@example.com","firstName":"Jane","lastName":"Brown","active":true,"role":"user","createdAt":"2025-08-13T04:50:40.257Z"},{"id":4,"username":"user4","email":"user4@example.com","firstName":"John","lastName":"Brown","active":true,"role":"admin","createdAt":"2025-04-01T21:11:02.264Z"},{"id":5,"username":"user5","email":"user5@example.com","firstName":"Alice","lastName":"Brown","active":true,"role":"moderator","createdAt":"2024-12-18T15:45:50.372Z"},{"id":6,"username":"user6","email":"user6@example.com","firstName":"John","lastName":"Johnson","active":false,"role":"admin","createdAt":"2025-02-15T03:35:42.458Z"},{"id":7,"username":"user7","email":"user7@example.com","firstName":"Jane","lastName":"Smith","active":true,"role":"user","createdAt":"2025-01-23T12:06:11.013Z"},{"id":8,"username":"user8","email":"user8@example.com","firstName":"Jane","lastName":"Johnson","active":false,"role":"user","createdAt":"2025-04-24T11:21:19.921Z"},{"id":9,"username":"user9","email":"user9@example.com","firstName":"John","lastName":"Wilson","active":false,"role":"admin","createdAt":"2024-12-25T19:54:09.462Z"},{"id":10,"username":"user10","email":"user10@example.com","firstName":"John","lastName":"Johnson","active":true,"role":"moderator","createdAt":"2024-10-29T04:25:38.724Z"},{"id":11,"username":"user11","email":"user11@example.com","firstName":"Bob","lastName":"Johnson","active":true,"role":"admin","createdAt":"2025-09-20T08:20:43.746Z"},{"id":12,"username":"user12","email":"user12@example.com","firstName":"Alice","lastName":"Brown","active":true,"role":"user","createdAt":"2025-08-28T11:00:38.428Z"},{"id":13,"username":"user13","email":"user13@example.com","firstName":"Carol","lastName":"Brown","active":true,"role":"user","createdAt":"2025-04-30T07:26:52.569Z"},{"id":14,"username":"user14","email":"user14@example.com","firstName":"Jane","lastName":"Davis","active":true,"role":"user","createdAt":"2025-01-31T14:40:49.906Z"},{"id":15,"username":"user15","email":"user15@example.com","firstName":"Bob","lastName":"Smith","active":true,"role":"user","createdAt":"2024-12-15T08:05:59.149Z"},{"id":16,"username":"user16","email":"user16@example.com","firstName":"Carol","lastName":"Wilson","active":true,"role":"moderator","createdAt":"2025-07-11T19:30:10.496Z"},{"id":17,"username":"user17","email":"user17@example.com","firstName":"Bob","lastName":"Wilson","active":true,"role":"moderator","createdAt":"2025-02-02T21:46:29.783Z"},{"id":18,"username":"user18","email":"user18@example.com","firstName":"John","lastName":"Brown","active":true,"role":"moderator","createdAt":"2025-02-08T03:58:27.936Z"},{"id":19,"username":"user19","email":"user19@example.com","firstName":"Bob","lastName":"Smith","active":false,"role":"admin","createdAt":"2025-01-29T14:58:59.118Z"},{"id":20,"username":"user20","email":"user20@example.com","firstName":"Alice","lastName":"Smith","active":false,"role":"moderator","createdAt":"2025-02-01T01:16:28.940Z"},{"id":21,"username":"user21","email":"user21@example.com","firstName":"Carol","lastName":"Smith","active":true,"role":"user","createdAt":"2025-07-11T11:40:22.373Z"},{"id":22,"username":"user22","email":"user22@example.com","firstName":"Bob","lastName":"Davis","active":true,"role":"moderator","createdAt":"2025-02-01T10:25:41.208Z"},{"id":23,"username":"user23","email":"user23@example.com","firstName":"Bob","lastName":"Brown","active":true,"role":"moderator","createdAt":"2025-08-01T23:19:31.085Z"},{"id":24,"username":"user24","email":"user24@example.com","firstName":"Bob","lastName":"Davis","active":false,"role":"moderator","createdAt":"2025-10-20T09:58:06.528Z"},{"id":25,"username":"user25","email":"user25@example.com","firstName":"Carol","lastName":"Smith","active":true,"role":"moderator","createdAt":"2025-10-03T17:34:25.614Z"}]},"pagination":{"page":1,"limit":25,"total":250,"totalPages":10,"hasNext":true,"hasPrev":false},"meta":{"version":"2.0","documentation":"https://api.example.com/docs","rateLimiting":{"remaining":995,"reset":"2025-10-23T15:33:00.714Z"}}}