{"success":true,"timestamp":"2025-10-23T14:31:21.774Z","requestId":"req_krf9m9b100g","data":{"users":[{"id":1,"username":"user1","email":"user1@example.com","firstName":"Carol","lastName":"Davis","active":true,"role":"admin","createdAt":"2025-01-30T06:32:30.740Z"},{"id":2,"username":"user2","email":"user2@example.com","firstName":"Carol","lastName":"Johnson","active":false,"role":"moderator","createdAt":"2025-09-22T00:28:35.391Z"},{"id":3,"username":"user3","email":"user3@example.com","firstName":"John","lastName":"Johnson","active":true,"role":"moderator","createdAt":"2024-11-09T20:25:42.424Z"},{"id":4,"username":"user4","email":"user4@example.com","firstName":"Bob","lastName":"Smith","active":true,"role":"admin","createdAt":"2025-08-27T20:26:57.498Z"},{"id":5,"username":"user5","email":"user5@example.com","firstName":"Carol","lastName":"Johnson","active":true,"role":"moderator","createdAt":"2025-07-01T15:06:48.971Z"},{"id":6,"username":"user6","email":"user6@example.com","firstName":"John","lastName":"Brown","active":true,"role":"user","createdAt":"2025-04-20T20:18:02.788Z"},{"id":7,"username":"user7","email":"user7@example.com","firstName":"Jane","lastName":"Davis","active":true,"role":"admin","createdAt":"2025-02-10T18:41:11.487Z"},{"id":8,"username":"user8","email":"user8@example.com","firstName":"John","lastName":"Brown","active":true,"role":"user","createdAt":"2025-02-09T04:37:51.606Z"},{"id":9,"username":"user9","email":"user9@example.com","firstName":"Jane","lastName":"Johnson","active":true,"role":"admin","createdAt":"2024-11-27T06:24:31.231Z"},{"id":10,"username":"user10","email":"user10@example.com","firstName":"Alice","lastName":"Smith","active":true,"role":"moderator","createdAt":"2025-01-03T03:04:16.730Z"},{"id":11,"username":"user11","email":"user11@example.com","firstName":"Jane","lastName":"Brown","active":false,"role":"moderator","createdAt":"2025-01-07T01:04:09.352Z"},{"id":12,"username":"user12","email":"user12@example.com","firstName":"Bob","lastName":"Brown","active":true,"role":"admin","createdAt":"2024-10-28T05:48:03.609Z"},{"id":13,"username":"user13","email":"user13@example.com","firstName":"Bob","lastName":"Davis","active":true,"role":"admin","createdAt":"2024-12-03T13:07:42.013Z"},{"id":14,"username":"user14","email":"user14@example.com","firstName":"Alice","lastName":"Wilson","active":true,"role":"admin","createdAt":"2025-02-13T13:45:52.759Z"},{"id":15,"username":"user15","email":"user15@example.com","firstName":"Alice","lastName":"Smith","active":true,"role":"user","createdAt":"2025-06-06T12:04:10.157Z"},{"id":16,"username":"user16","email":"user16@example.com","firstName":"Alice","lastName":"Brown","active":true,"role":"user","createdAt":"2025-03-17T10:19:06.289Z"},{"id":17,"username":"user17","email":"user17@example.com","firstName":"Bob","lastName":"Smith","active":true,"role":"user","createdAt":"2024-10-26T12:51:03.815Z"},{"id":18,"username":"user18","email":"user18@example.com","firstName":"Carol","lastName":"Brown","active":true,"role":"admin","createdAt":"2024-12-28T15:36:22.296Z"},{"id":19,"username":"user19","email":"user19@example.com","firstName":"Alice","lastName":"Johnson","active":true,"role":"user","createdAt":"2025-07-04T06:14:03.843Z"},{"id":20,"username":"user20","email":"user20@example.com","firstName":"Jane","lastName":"Wilson","active":true,"role":"moderator","createdAt":"2025-05-01T17:12:35.916Z"},{"id":21,"username":"user21","email":"user21@example.com","firstName":"Bob","lastName":"Brown","active":true,"role":"admin","createdAt":"2024-12-02T04:02:14.032Z"},{"id":22,"username":"user22","email":"user22@example.com","firstName":"Bob","lastName":"Wilson","active":true,"role":"user","createdAt":"2025-09-18T14:14:13.428Z"},{"id":23,"username":"user23","email":"user23@example.com","firstName":"Alice","lastName":"Brown","active":true,"role":"user","createdAt":"2025-01-04T08:28:36.612Z"},{"id":24,"username":"user24","email":"user24@example.com","firstName":"Carol","lastName":"Brown","active":true,"role":"moderator","createdAt":"2025-08-18T01:12:51.201Z"},{"id":25,"username":"user25","email":"user25@example.com","firstName":"Bob","lastName":"Brown","active":true,"role":"moderator","createdAt":"2025-09-29T23:54:53.181Z"}]},"pagination":{"page":1,"limit":25,"total":250,"totalPages":10,"hasNext":true,"hasPrev":false},"meta":{"version":"2.0","documentation":"https://api.example.com/docs","rateLimiting":{"remaining":995,"reset":"2025-10-23T15:31:21.774Z"}}}