{
  "success": true,
  "timestamp": "2025-10-21T06:10:11.916Z",
  "requestId": "req_lbtouyj61rn",
  "data": {
    "users": [
      {
        "id": 1,
        "username": "user1",
        "email": "user1@example.com",
        "firstName": "Jane",
        "lastName": "Johnson",
        "active": true,
        "role": "moderator",
        "createdAt": "2025-05-28T07:53:00.489Z"
      },
      {
        "id": 2,
        "username": "user2",
        "email": "user2@example.com",
        "firstName": "Jane",
        "lastName": "Brown",
        "active": true,
        "role": "admin",
        "createdAt": "2025-04-01T13:00:31.259Z"
      },
      {
        "id": 3,
        "username": "user3",
        "email": "user3@example.com",
        "firstName": "Bob",
        "lastName": "Brown",
        "active": true,
        "role": "admin",
        "createdAt": "2025-04-15T19:40:56.875Z"
      },
      {
        "id": 4,
        "username": "user4",
        "email": "user4@example.com",
        "firstName": "Bob",
        "lastName": "Wilson",
        "active": true,
        "role": "moderator",
        "createdAt": "2025-10-09T12:06:50.321Z"
      },
      {
        "id": 5,
        "username": "user5",
        "email": "user5@example.com",
        "firstName": "Jane",
        "lastName": "Smith",
        "active": true,
        "role": "admin",
        "createdAt": "2025-01-01T10:18:42.180Z"
      },
      {
        "id": 6,
        "username": "user6",
        "email": "user6@example.com",
        "firstName": "Bob",
        "lastName": "Wilson",
        "active": true,
        "role": "user",
        "createdAt": "2025-03-09T13:17:14.293Z"
      },
      {
        "id": 7,
        "username": "user7",
        "email": "user7@example.com",
        "firstName": "Carol",
        "lastName": "Davis",
        "active": true,
        "role": "user",
        "createdAt": "2024-12-30T06:56:51.785Z"
      },
      {
        "id": 8,
        "username": "user8",
        "email": "user8@example.com",
        "firstName": "Jane",
        "lastName": "Brown",
        "active": true,
        "role": "moderator",
        "createdAt": "2025-04-06T23:30:45.209Z"
      },
      {
        "id": 9,
        "username": "user9",
        "email": "user9@example.com",
        "firstName": "Bob",
        "lastName": "Wilson",
        "active": true,
        "role": "moderator",
        "createdAt": "2025-03-19T18:35:38.858Z"
      },
      {
        "id": 10,
        "username": "user10",
        "email": "user10@example.com",
        "firstName": "Bob",
        "lastName": "Brown",
        "active": true,
        "role": "moderator",
        "createdAt": "2024-10-21T16:28:24.135Z"
      },
      {
        "id": 11,
        "username": "user11",
        "email": "user11@example.com",
        "firstName": "John",
        "lastName": "Davis",
        "active": true,
        "role": "moderator",
        "createdAt": "2024-10-22T22:05:27.557Z"
      },
      {
        "id": 12,
        "username": "user12",
        "email": "user12@example.com",
        "firstName": "Carol",
        "lastName": "Davis",
        "active": false,
        "role": "user",
        "createdAt": "2025-08-16T22:19:47.427Z"
      },
      {
        "id": 13,
        "username": "user13",
        "email": "user13@example.com",
        "firstName": "Alice",
        "lastName": "Johnson",
        "active": true,
        "role": "user",
        "createdAt": "2025-07-30T04:03:40.154Z"
      },
      {
        "id": 14,
        "username": "user14",
        "email": "user14@example.com",
        "firstName": "John",
        "lastName": "Wilson",
        "active": true,
        "role": "admin",
        "createdAt": "2025-01-12T20:47:49.778Z"
      },
      {
        "id": 15,
        "username": "user15",
        "email": "user15@example.com",
        "firstName": "Bob",
        "lastName": "Johnson",
        "active": true,
        "role": "moderator",
        "createdAt": "2024-10-30T21:31:08.415Z"
      },
      {
        "id": 16,
        "username": "user16",
        "email": "user16@example.com",
        "firstName": "Carol",
        "lastName": "Davis",
        "active": false,
        "role": "user",
        "createdAt": "2024-12-13T19:00:31.847Z"
      },
      {
        "id": 17,
        "username": "user17",
        "email": "user17@example.com",
        "firstName": "Jane",
        "lastName": "Brown",
        "active": true,
        "role": "moderator",
        "createdAt": "2025-03-15T16:23:36.808Z"
      },
      {
        "id": 18,
        "username": "user18",
        "email": "user18@example.com",
        "firstName": "Carol",
        "lastName": "Davis",
        "active": true,
        "role": "moderator",
        "createdAt": "2025-02-09T19:53:25.433Z"
      },
      {
        "id": 19,
        "username": "user19",
        "email": "user19@example.com",
        "firstName": "Jane",
        "lastName": "Davis",
        "active": true,
        "role": "admin",
        "createdAt": "2025-07-10T14:07:25.070Z"
      },
      {
        "id": 20,
        "username": "user20",
        "email": "user20@example.com",
        "firstName": "Jane",
        "lastName": "Smith",
        "active": true,
        "role": "admin",
        "createdAt": "2025-05-17T04:58:47.775Z"
      },
      {
        "id": 21,
        "username": "user21",
        "email": "user21@example.com",
        "firstName": "Carol",
        "lastName": "Davis",
        "active": false,
        "role": "user",
        "createdAt": "2025-02-26T23:11:12.638Z"
      },
      {
        "id": 22,
        "username": "user22",
        "email": "user22@example.com",
        "firstName": "John",
        "lastName": "Brown",
        "active": false,
        "role": "user",
        "createdAt": "2025-06-08T01:20:01.478Z"
      },
      {
        "id": 23,
        "username": "user23",
        "email": "user23@example.com",
        "firstName": "Carol",
        "lastName": "Brown",
        "active": true,
        "role": "user",
        "createdAt": "2024-12-10T09:19:59.314Z"
      },
      {
        "id": 24,
        "username": "user24",
        "email": "user24@example.com",
        "firstName": "Alice",
        "lastName": "Davis",
        "active": true,
        "role": "user",
        "createdAt": "2025-09-18T22:36:44.255Z"
      },
      {
        "id": 25,
        "username": "user25",
        "email": "user25@example.com",
        "firstName": "John",
        "lastName": "Johnson",
        "active": true,
        "role": "user",
        "createdAt": "2024-11-04T13:46:05.664Z"
      }
    ]
  },
  "pagination": {
    "page": 1,
    "limit": 25,
    "total": 250,
    "totalPages": 10,
    "hasNext": true,
    "hasPrev": false
  },
  "meta": {
    "version": "2.0",
    "documentation": "https://api.example.com/docs",
    "rateLimiting": {
      "remaining": 995,
      "reset": "2025-10-21T07:10:11.916Z"
    }
  }
}