{
  "success": true,
  "timestamp": "2025-10-21T06:02:39.342Z",
  "requestId": "req_8a08urq4cpe",
  "data": {
    "users": [
      {
        "id": 1,
        "username": "user1",
        "email": "user1@example.com",
        "firstName": "John",
        "lastName": "Brown",
        "active": false,
        "role": "moderator",
        "createdAt": "2025-01-18T22:52:12.054Z"
      },
      {
        "id": 2,
        "username": "user2",
        "email": "user2@example.com",
        "firstName": "Alice",
        "lastName": "Wilson",
        "active": true,
        "role": "admin",
        "createdAt": "2025-05-02T17:19:19.299Z"
      },
      {
        "id": 3,
        "username": "user3",
        "email": "user3@example.com",
        "firstName": "Carol",
        "lastName": "Brown",
        "active": true,
        "role": "user",
        "createdAt": "2024-12-23T21:55:30.458Z"
      },
      {
        "id": 4,
        "username": "user4",
        "email": "user4@example.com",
        "firstName": "John",
        "lastName": "Smith",
        "active": true,
        "role": "moderator",
        "createdAt": "2025-05-22T03:04:49.458Z"
      },
      {
        "id": 5,
        "username": "user5",
        "email": "user5@example.com",
        "firstName": "Carol",
        "lastName": "Johnson",
        "active": true,
        "role": "user",
        "createdAt": "2025-02-25T06:20:55.806Z"
      },
      {
        "id": 6,
        "username": "user6",
        "email": "user6@example.com",
        "firstName": "John",
        "lastName": "Smith",
        "active": true,
        "role": "user",
        "createdAt": "2025-06-29T11:32:52.515Z"
      },
      {
        "id": 7,
        "username": "user7",
        "email": "user7@example.com",
        "firstName": "Carol",
        "lastName": "Davis",
        "active": true,
        "role": "user",
        "createdAt": "2025-07-01T02:52:14.965Z"
      },
      {
        "id": 8,
        "username": "user8",
        "email": "user8@example.com",
        "firstName": "Carol",
        "lastName": "Brown",
        "active": true,
        "role": "moderator",
        "createdAt": "2024-11-03T09:09:14.170Z"
      },
      {
        "id": 9,
        "username": "user9",
        "email": "user9@example.com",
        "firstName": "Bob",
        "lastName": "Davis",
        "active": true,
        "role": "user",
        "createdAt": "2025-06-30T11:38:50.746Z"
      },
      {
        "id": 10,
        "username": "user10",
        "email": "user10@example.com",
        "firstName": "Alice",
        "lastName": "Wilson",
        "active": true,
        "role": "admin",
        "createdAt": "2025-01-30T07:57:44.664Z"
      },
      {
        "id": 11,
        "username": "user11",
        "email": "user11@example.com",
        "firstName": "Bob",
        "lastName": "Davis",
        "active": true,
        "role": "admin",
        "createdAt": "2025-07-30T12:35:22.280Z"
      },
      {
        "id": 12,
        "username": "user12",
        "email": "user12@example.com",
        "firstName": "Bob",
        "lastName": "Johnson",
        "active": true,
        "role": "moderator",
        "createdAt": "2025-10-14T14:29:01.770Z"
      },
      {
        "id": 13,
        "username": "user13",
        "email": "user13@example.com",
        "firstName": "Carol",
        "lastName": "Wilson",
        "active": true,
        "role": "admin",
        "createdAt": "2024-12-23T15:45:29.084Z"
      },
      {
        "id": 14,
        "username": "user14",
        "email": "user14@example.com",
        "firstName": "John",
        "lastName": "Johnson",
        "active": true,
        "role": "moderator",
        "createdAt": "2025-01-29T06:50:14.230Z"
      },
      {
        "id": 15,
        "username": "user15",
        "email": "user15@example.com",
        "firstName": "Bob",
        "lastName": "Smith",
        "active": true,
        "role": "user",
        "createdAt": "2025-09-18T14:28:56.369Z"
      },
      {
        "id": 16,
        "username": "user16",
        "email": "user16@example.com",
        "firstName": "John",
        "lastName": "Wilson",
        "active": true,
        "role": "moderator",
        "createdAt": "2025-08-31T09:57:32.635Z"
      },
      {
        "id": 17,
        "username": "user17",
        "email": "user17@example.com",
        "firstName": "Alice",
        "lastName": "Brown",
        "active": true,
        "role": "user",
        "createdAt": "2025-08-19T11:03:38.057Z"
      },
      {
        "id": 18,
        "username": "user18",
        "email": "user18@example.com",
        "firstName": "Alice",
        "lastName": "Smith",
        "active": true,
        "role": "admin",
        "createdAt": "2025-07-29T13:22:21.427Z"
      },
      {
        "id": 19,
        "username": "user19",
        "email": "user19@example.com",
        "firstName": "Alice",
        "lastName": "Johnson",
        "active": true,
        "role": "moderator",
        "createdAt": "2025-07-05T12:13:17.943Z"
      },
      {
        "id": 20,
        "username": "user20",
        "email": "user20@example.com",
        "firstName": "Alice",
        "lastName": "Wilson",
        "active": false,
        "role": "user",
        "createdAt": "2025-05-21T15:50:58.113Z"
      },
      {
        "id": 21,
        "username": "user21",
        "email": "user21@example.com",
        "firstName": "Bob",
        "lastName": "Smith",
        "active": true,
        "role": "user",
        "createdAt": "2025-05-06T08:53:15.285Z"
      },
      {
        "id": 22,
        "username": "user22",
        "email": "user22@example.com",
        "firstName": "Jane",
        "lastName": "Johnson",
        "active": true,
        "role": "admin",
        "createdAt": "2025-01-24T11:42:35.568Z"
      },
      {
        "id": 23,
        "username": "user23",
        "email": "user23@example.com",
        "firstName": "Alice",
        "lastName": "Smith",
        "active": true,
        "role": "user",
        "createdAt": "2025-01-12T18:50:40.448Z"
      },
      {
        "id": 24,
        "username": "user24",
        "email": "user24@example.com",
        "firstName": "Alice",
        "lastName": "Wilson",
        "active": true,
        "role": "moderator",
        "createdAt": "2025-04-28T20:34:37.908Z"
      },
      {
        "id": 25,
        "username": "user25",
        "email": "user25@example.com",
        "firstName": "Jane",
        "lastName": "Wilson",
        "active": true,
        "role": "admin",
        "createdAt": "2025-05-04T14:12:12.655Z"
      }
    ]
  },
  "pagination": {
    "page": 1,
    "limit": 25,
    "total": 250,
    "totalPages": 10,
    "hasNext": true,
    "hasPrev": false
  },
  "meta": {
    "version": "2.0",
    "documentation": "https://api.example.com/docs",
    "rateLimiting": {
      "remaining": 995,
      "reset": "2025-10-21T07:02:39.342Z"
    }
  }
}