{
  "success": true,
  "timestamp": "2025-10-23T14:25:02.579Z",
  "requestId": "req_ngigil9146",
  "data": {
    "users": [
      {
        "id": 1,
        "username": "user1",
        "email": "user1@example.com",
        "firstName": "John",
        "lastName": "Johnson",
        "active": true,
        "role": "moderator",
        "createdAt": "2025-08-03T08:32:46.704Z"
      },
      {
        "id": 2,
        "username": "user2",
        "email": "user2@example.com",
        "firstName": "Carol",
        "lastName": "Smith",
        "active": true,
        "role": "admin",
        "createdAt": "2025-10-02T06:58:37.864Z"
      },
      {
        "id": 3,
        "username": "user3",
        "email": "user3@example.com",
        "firstName": "Bob",
        "lastName": "Johnson",
        "active": true,
        "role": "moderator",
        "createdAt": "2025-08-27T04:38:01.347Z"
      },
      {
        "id": 4,
        "username": "user4",
        "email": "user4@example.com",
        "firstName": "Alice",
        "lastName": "Brown",
        "active": true,
        "role": "admin",
        "createdAt": "2025-03-19T20:01:05.497Z"
      },
      {
        "id": 5,
        "username": "user5",
        "email": "user5@example.com",
        "firstName": "John",
        "lastName": "Davis",
        "active": true,
        "role": "user",
        "createdAt": "2024-11-21T14:18:21.998Z"
      },
      {
        "id": 6,
        "username": "user6",
        "email": "user6@example.com",
        "firstName": "Alice",
        "lastName": "Brown",
        "active": false,
        "role": "admin",
        "createdAt": "2025-05-15T13:34:41.728Z"
      },
      {
        "id": 7,
        "username": "user7",
        "email": "user7@example.com",
        "firstName": "Alice",
        "lastName": "Smith",
        "active": true,
        "role": "admin",
        "createdAt": "2025-01-14T06:10:20.006Z"
      },
      {
        "id": 8,
        "username": "user8",
        "email": "user8@example.com",
        "firstName": "Carol",
        "lastName": "Smith",
        "active": true,
        "role": "admin",
        "createdAt": "2025-07-28T22:39:09.612Z"
      },
      {
        "id": 9,
        "username": "user9",
        "email": "user9@example.com",
        "firstName": "Bob",
        "lastName": "Smith",
        "active": true,
        "role": "admin",
        "createdAt": "2025-09-15T02:28:35.468Z"
      },
      {
        "id": 10,
        "username": "user10",
        "email": "user10@example.com",
        "firstName": "John",
        "lastName": "Smith",
        "active": false,
        "role": "moderator",
        "createdAt": "2025-05-18T02:15:03.512Z"
      },
      {
        "id": 11,
        "username": "user11",
        "email": "user11@example.com",
        "firstName": "Bob",
        "lastName": "Davis",
        "active": true,
        "role": "user",
        "createdAt": "2025-02-17T01:01:15.142Z"
      },
      {
        "id": 12,
        "username": "user12",
        "email": "user12@example.com",
        "firstName": "Jane",
        "lastName": "Smith",
        "active": true,
        "role": "moderator",
        "createdAt": "2025-02-06T18:40:32.494Z"
      },
      {
        "id": 13,
        "username": "user13",
        "email": "user13@example.com",
        "firstName": "Carol",
        "lastName": "Wilson",
        "active": true,
        "role": "admin",
        "createdAt": "2025-01-23T04:07:57.614Z"
      },
      {
        "id": 14,
        "username": "user14",
        "email": "user14@example.com",
        "firstName": "Carol",
        "lastName": "Smith",
        "active": true,
        "role": "user",
        "createdAt": "2025-10-16T09:29:03.454Z"
      },
      {
        "id": 15,
        "username": "user15",
        "email": "user15@example.com",
        "firstName": "Bob",
        "lastName": "Smith",
        "active": true,
        "role": "user",
        "createdAt": "2025-10-07T20:38:36.065Z"
      },
      {
        "id": 16,
        "username": "user16",
        "email": "user16@example.com",
        "firstName": "Jane",
        "lastName": "Brown",
        "active": true,
        "role": "user",
        "createdAt": "2025-01-13T21:27:58.660Z"
      },
      {
        "id": 17,
        "username": "user17",
        "email": "user17@example.com",
        "firstName": "Carol",
        "lastName": "Davis",
        "active": false,
        "role": "admin",
        "createdAt": "2025-03-28T20:23:23.231Z"
      },
      {
        "id": 18,
        "username": "user18",
        "email": "user18@example.com",
        "firstName": "Alice",
        "lastName": "Davis",
        "active": true,
        "role": "user",
        "createdAt": "2025-04-01T12:56:01.253Z"
      },
      {
        "id": 19,
        "username": "user19",
        "email": "user19@example.com",
        "firstName": "Jane",
        "lastName": "Brown",
        "active": true,
        "role": "user",
        "createdAt": "2025-09-26T04:03:49.272Z"
      },
      {
        "id": 20,
        "username": "user20",
        "email": "user20@example.com",
        "firstName": "Bob",
        "lastName": "Smith",
        "active": true,
        "role": "admin",
        "createdAt": "2025-07-29T05:27:02.593Z"
      },
      {
        "id": 21,
        "username": "user21",
        "email": "user21@example.com",
        "firstName": "Alice",
        "lastName": "Johnson",
        "active": true,
        "role": "moderator",
        "createdAt": "2025-05-20T22:56:08.921Z"
      },
      {
        "id": 22,
        "username": "user22",
        "email": "user22@example.com",
        "firstName": "Bob",
        "lastName": "Brown",
        "active": true,
        "role": "moderator",
        "createdAt": "2025-07-27T06:31:44.025Z"
      },
      {
        "id": 23,
        "username": "user23",
        "email": "user23@example.com",
        "firstName": "Carol",
        "lastName": "Brown",
        "active": true,
        "role": "moderator",
        "createdAt": "2025-10-08T09:27:38.290Z"
      },
      {
        "id": 24,
        "username": "user24",
        "email": "user24@example.com",
        "firstName": "Jane",
        "lastName": "Wilson",
        "active": true,
        "role": "moderator",
        "createdAt": "2024-12-17T06:09:32.607Z"
      },
      {
        "id": 25,
        "username": "user25",
        "email": "user25@example.com",
        "firstName": "Bob",
        "lastName": "Wilson",
        "active": true,
        "role": "user",
        "createdAt": "2025-08-06T08:47:18.831Z"
      }
    ]
  },
  "pagination": {
    "page": 1,
    "limit": 25,
    "total": 250,
    "totalPages": 10,
    "hasNext": true,
    "hasPrev": false
  },
  "meta": {
    "version": "2.0",
    "documentation": "https://api.example.com/docs",
    "rateLimiting": {
      "remaining": 995,
      "reset": "2025-10-23T15:25:02.579Z"
    }
  }
}