{
  "success": true,
  "timestamp": "2025-10-23T14:21:36.894Z",
  "requestId": "req_k3vuzos929i",
  "data": {
    "users": [
      {
        "id": 1,
        "username": "user1",
        "email": "user1@example.com",
        "firstName": "Carol",
        "lastName": "Davis",
        "active": true,
        "role": "admin",
        "createdAt": "2025-09-29T08:53:53.678Z"
      },
      {
        "id": 2,
        "username": "user2",
        "email": "user2@example.com",
        "firstName": "Bob",
        "lastName": "Smith",
        "active": true,
        "role": "user",
        "createdAt": "2025-06-06T02:09:29.081Z"
      },
      {
        "id": 3,
        "username": "user3",
        "email": "user3@example.com",
        "firstName": "Bob",
        "lastName": "Johnson",
        "active": true,
        "role": "user",
        "createdAt": "2025-06-28T02:39:01.692Z"
      },
      {
        "id": 4,
        "username": "user4",
        "email": "user4@example.com",
        "firstName": "Alice",
        "lastName": "Smith",
        "active": true,
        "role": "admin",
        "createdAt": "2025-06-10T02:21:22.861Z"
      },
      {
        "id": 5,
        "username": "user5",
        "email": "user5@example.com",
        "firstName": "Carol",
        "lastName": "Wilson",
        "active": true,
        "role": "admin",
        "createdAt": "2025-04-26T19:53:26.202Z"
      },
      {
        "id": 6,
        "username": "user6",
        "email": "user6@example.com",
        "firstName": "Alice",
        "lastName": "Davis",
        "active": true,
        "role": "admin",
        "createdAt": "2024-12-31T07:38:26.081Z"
      },
      {
        "id": 7,
        "username": "user7",
        "email": "user7@example.com",
        "firstName": "Jane",
        "lastName": "Wilson",
        "active": true,
        "role": "moderator",
        "createdAt": "2025-03-01T18:27:11.317Z"
      },
      {
        "id": 8,
        "username": "user8",
        "email": "user8@example.com",
        "firstName": "Alice",
        "lastName": "Wilson",
        "active": true,
        "role": "admin",
        "createdAt": "2025-10-13T20:51:51.191Z"
      },
      {
        "id": 9,
        "username": "user9",
        "email": "user9@example.com",
        "firstName": "John",
        "lastName": "Smith",
        "active": true,
        "role": "moderator",
        "createdAt": "2025-04-10T15:48:59.424Z"
      },
      {
        "id": 10,
        "username": "user10",
        "email": "user10@example.com",
        "firstName": "Bob",
        "lastName": "Smith",
        "active": false,
        "role": "moderator",
        "createdAt": "2025-05-30T14:22:50.642Z"
      },
      {
        "id": 11,
        "username": "user11",
        "email": "user11@example.com",
        "firstName": "Jane",
        "lastName": "Brown",
        "active": true,
        "role": "user",
        "createdAt": "2025-05-16T01:11:29.856Z"
      },
      {
        "id": 12,
        "username": "user12",
        "email": "user12@example.com",
        "firstName": "Bob",
        "lastName": "Smith",
        "active": true,
        "role": "user",
        "createdAt": "2025-02-12T21:49:46.001Z"
      },
      {
        "id": 13,
        "username": "user13",
        "email": "user13@example.com",
        "firstName": "Jane",
        "lastName": "Smith",
        "active": true,
        "role": "user",
        "createdAt": "2025-06-04T11:38:47.203Z"
      },
      {
        "id": 14,
        "username": "user14",
        "email": "user14@example.com",
        "firstName": "Bob",
        "lastName": "Davis",
        "active": false,
        "role": "admin",
        "createdAt": "2025-06-17T09:47:53.623Z"
      },
      {
        "id": 15,
        "username": "user15",
        "email": "user15@example.com",
        "firstName": "Alice",
        "lastName": "Davis",
        "active": false,
        "role": "admin",
        "createdAt": "2025-08-20T07:56:05.485Z"
      },
      {
        "id": 16,
        "username": "user16",
        "email": "user16@example.com",
        "firstName": "Carol",
        "lastName": "Wilson",
        "active": true,
        "role": "moderator",
        "createdAt": "2025-03-29T18:48:49.739Z"
      },
      {
        "id": 17,
        "username": "user17",
        "email": "user17@example.com",
        "firstName": "Jane",
        "lastName": "Smith",
        "active": true,
        "role": "user",
        "createdAt": "2025-06-20T14:38:12.908Z"
      },
      {
        "id": 18,
        "username": "user18",
        "email": "user18@example.com",
        "firstName": "Bob",
        "lastName": "Smith",
        "active": true,
        "role": "moderator",
        "createdAt": "2025-05-07T20:35:42.453Z"
      },
      {
        "id": 19,
        "username": "user19",
        "email": "user19@example.com",
        "firstName": "Bob",
        "lastName": "Brown",
        "active": true,
        "role": "admin",
        "createdAt": "2025-02-02T12:06:09.304Z"
      },
      {
        "id": 20,
        "username": "user20",
        "email": "user20@example.com",
        "firstName": "Bob",
        "lastName": "Smith",
        "active": false,
        "role": "admin",
        "createdAt": "2025-10-04T01:24:44.901Z"
      },
      {
        "id": 21,
        "username": "user21",
        "email": "user21@example.com",
        "firstName": "Carol",
        "lastName": "Smith",
        "active": false,
        "role": "user",
        "createdAt": "2025-10-16T17:51:33.482Z"
      },
      {
        "id": 22,
        "username": "user22",
        "email": "user22@example.com",
        "firstName": "Jane",
        "lastName": "Davis",
        "active": false,
        "role": "admin",
        "createdAt": "2025-07-17T17:35:46.390Z"
      },
      {
        "id": 23,
        "username": "user23",
        "email": "user23@example.com",
        "firstName": "Alice",
        "lastName": "Wilson",
        "active": false,
        "role": "user",
        "createdAt": "2025-08-01T01:52:48.896Z"
      },
      {
        "id": 24,
        "username": "user24",
        "email": "user24@example.com",
        "firstName": "John",
        "lastName": "Smith",
        "active": true,
        "role": "user",
        "createdAt": "2025-10-09T17:11:10.680Z"
      },
      {
        "id": 25,
        "username": "user25",
        "email": "user25@example.com",
        "firstName": "Jane",
        "lastName": "Wilson",
        "active": true,
        "role": "user",
        "createdAt": "2025-06-12T19:30:40.012Z"
      }
    ]
  },
  "pagination": {
    "page": 1,
    "limit": 25,
    "total": 250,
    "totalPages": 10,
    "hasNext": true,
    "hasPrev": false
  },
  "meta": {
    "version": "2.0",
    "documentation": "https://api.example.com/docs",
    "rateLimiting": {
      "remaining": 995,
      "reset": "2025-10-23T15:21:36.894Z"
    }
  }
}