{"success":true,"timestamp":"2025-10-23T14:33:00.554Z","requestId":"req_rrubb3isms","data":{"users":[{"id":1,"username":"user1","email":"user1@example.com","firstName":"Jane","lastName":"Davis","active":false,"role":"admin","createdAt":"2024-11-30T21:47:35.368Z"},{"id":2,"username":"user2","email":"user2@example.com","firstName":"Carol","lastName":"Wilson","active":true,"role":"user","createdAt":"2025-06-13T12:24:28.618Z"},{"id":3,"username":"user3","email":"user3@example.com","firstName":"Carol","lastName":"Wilson","active":true,"role":"moderator","createdAt":"2025-03-10T01:11:27.436Z"},{"id":4,"username":"user4","email":"user4@example.com","firstName":"Bob","lastName":"Davis","active":false,"role":"moderator","createdAt":"2025-05-31T22:58:57.503Z"},{"id":5,"username":"user5","email":"user5@example.com","firstName":"Jane","lastName":"Johnson","active":true,"role":"user","createdAt":"2024-12-05T12:04:58.106Z"},{"id":6,"username":"user6","email":"user6@example.com","firstName":"Alice","lastName":"Johnson","active":true,"role":"user","createdAt":"2025-01-30T04:42:47.992Z"},{"id":7,"username":"user7","email":"user7@example.com","firstName":"Carol","lastName":"Johnson","active":false,"role":"admin","createdAt":"2024-12-09T23:24:02.475Z"},{"id":8,"username":"user8","email":"user8@example.com","firstName":"Jane","lastName":"Brown","active":true,"role":"user","createdAt":"2024-12-20T07:38:59.566Z"},{"id":9,"username":"user9","email":"user9@example.com","firstName":"Alice","lastName":"Brown","active":true,"role":"moderator","createdAt":"2025-07-31T20:31:31.104Z"},{"id":10,"username":"user10","email":"user10@example.com","firstName":"Carol","lastName":"Davis","active":false,"role":"user","createdAt":"2025-10-15T14:04:53.236Z"},{"id":11,"username":"user11","email":"user11@example.com","firstName":"Alice","lastName":"Davis","active":true,"role":"user","createdAt":"2025-07-29T01:48:43.382Z"},{"id":12,"username":"user12","email":"user12@example.com","firstName":"Jane","lastName":"Smith","active":true,"role":"moderator","createdAt":"2025-09-15T23:33:17.768Z"},{"id":13,"username":"user13","email":"user13@example.com","firstName":"Bob","lastName":"Wilson","active":false,"role":"admin","createdAt":"2025-09-28T03:14:17.750Z"},{"id":14,"username":"user14","email":"user14@example.com","firstName":"Bob","lastName":"Johnson","active":true,"role":"moderator","createdAt":"2025-09-17T07:37:18.088Z"},{"id":15,"username":"user15","email":"user15@example.com","firstName":"Bob","lastName":"Smith","active":true,"role":"admin","createdAt":"2025-01-07T00:11:06.434Z"},{"id":16,"username":"user16","email":"user16@example.com","firstName":"John","lastName":"Brown","active":true,"role":"admin","createdAt":"2025-10-17T19:22:41.439Z"},{"id":17,"username":"user17","email":"user17@example.com","firstName":"Alice","lastName":"Brown","active":false,"role":"moderator","createdAt":"2025-04-26T19:09:38.982Z"},{"id":18,"username":"user18","email":"user18@example.com","firstName":"Jane","lastName":"Davis","active":true,"role":"admin","createdAt":"2025-01-08T03:03:31.396Z"},{"id":19,"username":"user19","email":"user19@example.com","firstName":"Carol","lastName":"Wilson","active":true,"role":"moderator","createdAt":"2025-06-16T17:34:31.578Z"},{"id":20,"username":"user20","email":"user20@example.com","firstName":"Bob","lastName":"Smith","active":true,"role":"moderator","createdAt":"2024-12-31T13:07:35.211Z"},{"id":21,"username":"user21","email":"user21@example.com","firstName":"Bob","lastName":"Wilson","active":true,"role":"admin","createdAt":"2025-04-22T09:28:33.100Z"},{"id":22,"username":"user22","email":"user22@example.com","firstName":"Alice","lastName":"Johnson","active":true,"role":"user","createdAt":"2024-12-07T07:03:30.794Z"},{"id":23,"username":"user23","email":"user23@example.com","firstName":"Carol","lastName":"Wilson","active":true,"role":"admin","createdAt":"2025-03-06T10:13:01.110Z"},{"id":24,"username":"user24","email":"user24@example.com","firstName":"Jane","lastName":"Wilson","active":true,"role":"moderator","createdAt":"2025-10-10T06:57:00.137Z"},{"id":25,"username":"user25","email":"user25@example.com","firstName":"Jane","lastName":"Smith","active":true,"role":"moderator","createdAt":"2025-07-12T17:25:30.676Z"}]},"pagination":{"page":1,"limit":25,"total":250,"totalPages":10,"hasNext":true,"hasPrev":false},"meta":{"version":"2.0","documentation":"https://api.example.com/docs","rateLimiting":{"remaining":995,"reset":"2025-10-23T15:33:00.554Z"}}}