{
  "success": true,
  "timestamp": "2025-10-21T06:10:20.302Z",
  "requestId": "req_hgk08v9csj",
  "data": {
    "users": [
      {
        "id": 1,
        "username": "user1",
        "email": "user1@example.com",
        "firstName": "Bob",
        "lastName": "Wilson",
        "active": true,
        "role": "admin",
        "createdAt": "2025-07-08T18:46:22.875Z"
      },
      {
        "id": 2,
        "username": "user2",
        "email": "user2@example.com",
        "firstName": "John",
        "lastName": "Davis",
        "active": true,
        "role": "admin",
        "createdAt": "2025-07-29T19:19:58.020Z"
      },
      {
        "id": 3,
        "username": "user3",
        "email": "user3@example.com",
        "firstName": "Jane",
        "lastName": "Johnson",
        "active": true,
        "role": "admin",
        "createdAt": "2025-09-19T06:43:10.457Z"
      },
      {
        "id": 4,
        "username": "user4",
        "email": "user4@example.com",
        "firstName": "John",
        "lastName": "Wilson",
        "active": true,
        "role": "admin",
        "createdAt": "2025-09-17T16:25:18.923Z"
      },
      {
        "id": 5,
        "username": "user5",
        "email": "user5@example.com",
        "firstName": "John",
        "lastName": "Brown",
        "active": true,
        "role": "user",
        "createdAt": "2025-03-25T18:03:48.022Z"
      },
      {
        "id": 6,
        "username": "user6",
        "email": "user6@example.com",
        "firstName": "Carol",
        "lastName": "Wilson",
        "active": true,
        "role": "user",
        "createdAt": "2025-05-27T09:36:52.913Z"
      },
      {
        "id": 7,
        "username": "user7",
        "email": "user7@example.com",
        "firstName": "Alice",
        "lastName": "Johnson",
        "active": true,
        "role": "user",
        "createdAt": "2025-09-26T00:20:44.261Z"
      },
      {
        "id": 8,
        "username": "user8",
        "email": "user8@example.com",
        "firstName": "Alice",
        "lastName": "Smith",
        "active": true,
        "role": "moderator",
        "createdAt": "2025-09-07T15:12:30.121Z"
      },
      {
        "id": 9,
        "username": "user9",
        "email": "user9@example.com",
        "firstName": "Carol",
        "lastName": "Wilson",
        "active": true,
        "role": "user",
        "createdAt": "2025-09-18T12:34:07.120Z"
      },
      {
        "id": 10,
        "username": "user10",
        "email": "user10@example.com",
        "firstName": "Alice",
        "lastName": "Davis",
        "active": false,
        "role": "admin",
        "createdAt": "2024-11-26T15:17:25.362Z"
      },
      {
        "id": 11,
        "username": "user11",
        "email": "user11@example.com",
        "firstName": "Carol",
        "lastName": "Smith",
        "active": true,
        "role": "admin",
        "createdAt": "2024-12-14T00:23:01.176Z"
      },
      {
        "id": 12,
        "username": "user12",
        "email": "user12@example.com",
        "firstName": "Bob",
        "lastName": "Smith",
        "active": true,
        "role": "moderator",
        "createdAt": "2025-06-07T19:55:01.616Z"
      },
      {
        "id": 13,
        "username": "user13",
        "email": "user13@example.com",
        "firstName": "Bob",
        "lastName": "Davis",
        "active": true,
        "role": "moderator",
        "createdAt": "2025-10-17T02:29:50.043Z"
      },
      {
        "id": 14,
        "username": "user14",
        "email": "user14@example.com",
        "firstName": "Bob",
        "lastName": "Wilson",
        "active": true,
        "role": "admin",
        "createdAt": "2025-04-05T02:10:35.277Z"
      },
      {
        "id": 15,
        "username": "user15",
        "email": "user15@example.com",
        "firstName": "Bob",
        "lastName": "Davis",
        "active": true,
        "role": "admin",
        "createdAt": "2025-01-07T07:46:02.612Z"
      },
      {
        "id": 16,
        "username": "user16",
        "email": "user16@example.com",
        "firstName": "Alice",
        "lastName": "Wilson",
        "active": true,
        "role": "admin",
        "createdAt": "2025-08-12T15:46:38.846Z"
      },
      {
        "id": 17,
        "username": "user17",
        "email": "user17@example.com",
        "firstName": "Carol",
        "lastName": "Johnson",
        "active": true,
        "role": "moderator",
        "createdAt": "2025-03-16T17:21:46.224Z"
      },
      {
        "id": 18,
        "username": "user18",
        "email": "user18@example.com",
        "firstName": "Jane",
        "lastName": "Brown",
        "active": true,
        "role": "moderator",
        "createdAt": "2025-02-24T20:00:25.848Z"
      },
      {
        "id": 19,
        "username": "user19",
        "email": "user19@example.com",
        "firstName": "Carol",
        "lastName": "Wilson",
        "active": true,
        "role": "moderator",
        "createdAt": "2025-02-18T19:20:24.360Z"
      },
      {
        "id": 20,
        "username": "user20",
        "email": "user20@example.com",
        "firstName": "Bob",
        "lastName": "Wilson",
        "active": true,
        "role": "user",
        "createdAt": "2025-01-21T06:25:03.504Z"
      },
      {
        "id": 21,
        "username": "user21",
        "email": "user21@example.com",
        "firstName": "Alice",
        "lastName": "Smith",
        "active": true,
        "role": "moderator",
        "createdAt": "2025-05-19T00:17:57.973Z"
      },
      {
        "id": 22,
        "username": "user22",
        "email": "user22@example.com",
        "firstName": "John",
        "lastName": "Davis",
        "active": true,
        "role": "moderator",
        "createdAt": "2024-11-11T05:18:33.781Z"
      },
      {
        "id": 23,
        "username": "user23",
        "email": "user23@example.com",
        "firstName": "Jane",
        "lastName": "Johnson",
        "active": true,
        "role": "user",
        "createdAt": "2025-05-09T17:52:31.135Z"
      },
      {
        "id": 24,
        "username": "user24",
        "email": "user24@example.com",
        "firstName": "John",
        "lastName": "Brown",
        "active": true,
        "role": "admin",
        "createdAt": "2025-10-16T06:47:59.353Z"
      },
      {
        "id": 25,
        "username": "user25",
        "email": "user25@example.com",
        "firstName": "Alice",
        "lastName": "Davis",
        "active": true,
        "role": "moderator",
        "createdAt": "2025-04-14T08:31:23.712Z"
      }
    ]
  },
  "pagination": {
    "page": 1,
    "limit": 25,
    "total": 250,
    "totalPages": 10,
    "hasNext": true,
    "hasPrev": false
  },
  "meta": {
    "version": "2.0",
    "documentation": "https://api.example.com/docs",
    "rateLimiting": {
      "remaining": 995,
      "reset": "2025-10-21T07:10:20.302Z"
    }
  }
}