{
  "success": true,
  "timestamp": "2025-10-23T14:21:36.431Z",
  "requestId": "req_blf80ldnf1r",
  "data": {
    "users": [
      {
        "id": 1,
        "username": "user1",
        "email": "user1@example.com",
        "firstName": "Jane",
        "lastName": "Davis",
        "active": false,
        "role": "user",
        "createdAt": "2025-09-17T02:49:08.344Z"
      },
      {
        "id": 2,
        "username": "user2",
        "email": "user2@example.com",
        "firstName": "Bob",
        "lastName": "Smith",
        "active": true,
        "role": "admin",
        "createdAt": "2024-11-08T03:35:40.998Z"
      },
      {
        "id": 3,
        "username": "user3",
        "email": "user3@example.com",
        "firstName": "Carol",
        "lastName": "Wilson",
        "active": true,
        "role": "moderator",
        "createdAt": "2025-03-10T02:42:36.137Z"
      },
      {
        "id": 4,
        "username": "user4",
        "email": "user4@example.com",
        "firstName": "Jane",
        "lastName": "Johnson",
        "active": true,
        "role": "user",
        "createdAt": "2025-02-08T18:46:18.489Z"
      },
      {
        "id": 5,
        "username": "user5",
        "email": "user5@example.com",
        "firstName": "John",
        "lastName": "Smith",
        "active": true,
        "role": "moderator",
        "createdAt": "2025-01-13T23:53:46.884Z"
      },
      {
        "id": 6,
        "username": "user6",
        "email": "user6@example.com",
        "firstName": "Bob",
        "lastName": "Smith",
        "active": true,
        "role": "user",
        "createdAt": "2024-11-12T16:02:28.947Z"
      },
      {
        "id": 7,
        "username": "user7",
        "email": "user7@example.com",
        "firstName": "John",
        "lastName": "Davis",
        "active": true,
        "role": "admin",
        "createdAt": "2025-02-23T17:29:16.894Z"
      },
      {
        "id": 8,
        "username": "user8",
        "email": "user8@example.com",
        "firstName": "Carol",
        "lastName": "Brown",
        "active": true,
        "role": "admin",
        "createdAt": "2025-03-27T22:25:36.836Z"
      },
      {
        "id": 9,
        "username": "user9",
        "email": "user9@example.com",
        "firstName": "John",
        "lastName": "Brown",
        "active": true,
        "role": "moderator",
        "createdAt": "2025-02-06T17:46:09.081Z"
      },
      {
        "id": 10,
        "username": "user10",
        "email": "user10@example.com",
        "firstName": "Jane",
        "lastName": "Johnson",
        "active": false,
        "role": "user",
        "createdAt": "2025-06-30T02:49:08.177Z"
      },
      {
        "id": 11,
        "username": "user11",
        "email": "user11@example.com",
        "firstName": "John",
        "lastName": "Johnson",
        "active": true,
        "role": "admin",
        "createdAt": "2025-06-28T06:45:25.946Z"
      },
      {
        "id": 12,
        "username": "user12",
        "email": "user12@example.com",
        "firstName": "John",
        "lastName": "Smith",
        "active": true,
        "role": "moderator",
        "createdAt": "2025-07-05T13:49:45.510Z"
      },
      {
        "id": 13,
        "username": "user13",
        "email": "user13@example.com",
        "firstName": "Jane",
        "lastName": "Wilson",
        "active": true,
        "role": "moderator",
        "createdAt": "2025-04-05T04:13:21.347Z"
      },
      {
        "id": 14,
        "username": "user14",
        "email": "user14@example.com",
        "firstName": "Carol",
        "lastName": "Johnson",
        "active": true,
        "role": "user",
        "createdAt": "2025-02-22T16:52:50.993Z"
      },
      {
        "id": 15,
        "username": "user15",
        "email": "user15@example.com",
        "firstName": "Bob",
        "lastName": "Davis",
        "active": true,
        "role": "admin",
        "createdAt": "2025-07-17T03:16:04.089Z"
      },
      {
        "id": 16,
        "username": "user16",
        "email": "user16@example.com",
        "firstName": "Bob",
        "lastName": "Johnson",
        "active": true,
        "role": "user",
        "createdAt": "2025-08-07T04:07:13.641Z"
      },
      {
        "id": 17,
        "username": "user17",
        "email": "user17@example.com",
        "firstName": "Jane",
        "lastName": "Wilson",
        "active": false,
        "role": "moderator",
        "createdAt": "2025-01-23T00:30:31.502Z"
      },
      {
        "id": 18,
        "username": "user18",
        "email": "user18@example.com",
        "firstName": "John",
        "lastName": "Johnson",
        "active": false,
        "role": "admin",
        "createdAt": "2025-03-18T03:40:17.528Z"
      },
      {
        "id": 19,
        "username": "user19",
        "email": "user19@example.com",
        "firstName": "Bob",
        "lastName": "Smith",
        "active": true,
        "role": "user",
        "createdAt": "2024-12-11T06:46:03.495Z"
      },
      {
        "id": 20,
        "username": "user20",
        "email": "user20@example.com",
        "firstName": "Alice",
        "lastName": "Smith",
        "active": true,
        "role": "moderator",
        "createdAt": "2025-01-24T22:19:20.573Z"
      },
      {
        "id": 21,
        "username": "user21",
        "email": "user21@example.com",
        "firstName": "Alice",
        "lastName": "Davis",
        "active": true,
        "role": "admin",
        "createdAt": "2025-01-18T17:05:22.224Z"
      },
      {
        "id": 22,
        "username": "user22",
        "email": "user22@example.com",
        "firstName": "John",
        "lastName": "Johnson",
        "active": true,
        "role": "user",
        "createdAt": "2024-12-08T07:40:41.768Z"
      },
      {
        "id": 23,
        "username": "user23",
        "email": "user23@example.com",
        "firstName": "John",
        "lastName": "Brown",
        "active": false,
        "role": "user",
        "createdAt": "2025-05-21T07:19:09.447Z"
      },
      {
        "id": 24,
        "username": "user24",
        "email": "user24@example.com",
        "firstName": "Jane",
        "lastName": "Wilson",
        "active": false,
        "role": "moderator",
        "createdAt": "2025-08-06T04:41:36.653Z"
      },
      {
        "id": 25,
        "username": "user25",
        "email": "user25@example.com",
        "firstName": "Carol",
        "lastName": "Wilson",
        "active": true,
        "role": "admin",
        "createdAt": "2025-09-26T18:08:27.482Z"
      }
    ]
  },
  "pagination": {
    "page": 1,
    "limit": 25,
    "total": 250,
    "totalPages": 10,
    "hasNext": true,
    "hasPrev": false
  },
  "meta": {
    "version": "2.0",
    "documentation": "https://api.example.com/docs",
    "rateLimiting": {
      "remaining": 995,
      "reset": "2025-10-23T15:21:36.431Z"
    }
  }
}