{
  "success": true,
  "timestamp": "2025-10-21T06:02:23.611Z",
  "requestId": "req_chv15q2blzw",
  "data": {
    "users": [
      {
        "id": 1,
        "username": "user1",
        "email": "user1@example.com",
        "firstName": "Jane",
        "lastName": "Wilson",
        "active": true,
        "role": "admin",
        "createdAt": "2025-05-14T07:37:21.505Z"
      },
      {
        "id": 2,
        "username": "user2",
        "email": "user2@example.com",
        "firstName": "Jane",
        "lastName": "Wilson",
        "active": true,
        "role": "admin",
        "createdAt": "2024-11-19T15:24:04.136Z"
      },
      {
        "id": 3,
        "username": "user3",
        "email": "user3@example.com",
        "firstName": "John",
        "lastName": "Davis",
        "active": true,
        "role": "moderator",
        "createdAt": "2025-10-01T10:04:49.725Z"
      },
      {
        "id": 4,
        "username": "user4",
        "email": "user4@example.com",
        "firstName": "Alice",
        "lastName": "Smith",
        "active": true,
        "role": "admin",
        "createdAt": "2025-03-04T00:32:58.115Z"
      },
      {
        "id": 5,
        "username": "user5",
        "email": "user5@example.com",
        "firstName": "Bob",
        "lastName": "Davis",
        "active": true,
        "role": "admin",
        "createdAt": "2025-05-10T12:24:55.954Z"
      },
      {
        "id": 6,
        "username": "user6",
        "email": "user6@example.com",
        "firstName": "Alice",
        "lastName": "Davis",
        "active": true,
        "role": "moderator",
        "createdAt": "2025-01-09T15:27:52.898Z"
      },
      {
        "id": 7,
        "username": "user7",
        "email": "user7@example.com",
        "firstName": "John",
        "lastName": "Wilson",
        "active": true,
        "role": "moderator",
        "createdAt": "2025-01-30T05:20:57.848Z"
      },
      {
        "id": 8,
        "username": "user8",
        "email": "user8@example.com",
        "firstName": "Bob",
        "lastName": "Wilson",
        "active": true,
        "role": "admin",
        "createdAt": "2025-09-30T00:23:26.835Z"
      },
      {
        "id": 9,
        "username": "user9",
        "email": "user9@example.com",
        "firstName": "Carol",
        "lastName": "Wilson",
        "active": true,
        "role": "moderator",
        "createdAt": "2025-01-06T09:49:03.242Z"
      },
      {
        "id": 10,
        "username": "user10",
        "email": "user10@example.com",
        "firstName": "John",
        "lastName": "Brown",
        "active": true,
        "role": "admin",
        "createdAt": "2025-07-29T03:08:52.839Z"
      },
      {
        "id": 11,
        "username": "user11",
        "email": "user11@example.com",
        "firstName": "Alice",
        "lastName": "Davis",
        "active": true,
        "role": "user",
        "createdAt": "2025-08-03T19:43:34.037Z"
      },
      {
        "id": 12,
        "username": "user12",
        "email": "user12@example.com",
        "firstName": "Jane",
        "lastName": "Davis",
        "active": true,
        "role": "user",
        "createdAt": "2024-11-29T12:08:36.581Z"
      },
      {
        "id": 13,
        "username": "user13",
        "email": "user13@example.com",
        "firstName": "Jane",
        "lastName": "Wilson",
        "active": true,
        "role": "admin",
        "createdAt": "2024-12-13T00:52:10.740Z"
      },
      {
        "id": 14,
        "username": "user14",
        "email": "user14@example.com",
        "firstName": "Jane",
        "lastName": "Johnson",
        "active": true,
        "role": "moderator",
        "createdAt": "2025-04-24T05:21:31.751Z"
      },
      {
        "id": 15,
        "username": "user15",
        "email": "user15@example.com",
        "firstName": "John",
        "lastName": "Wilson",
        "active": true,
        "role": "moderator",
        "createdAt": "2025-03-17T01:19:55.175Z"
      },
      {
        "id": 16,
        "username": "user16",
        "email": "user16@example.com",
        "firstName": "Alice",
        "lastName": "Brown",
        "active": true,
        "role": "moderator",
        "createdAt": "2025-08-10T00:20:17.225Z"
      },
      {
        "id": 17,
        "username": "user17",
        "email": "user17@example.com",
        "firstName": "Alice",
        "lastName": "Brown",
        "active": true,
        "role": "admin",
        "createdAt": "2024-12-12T00:20:58.835Z"
      },
      {
        "id": 18,
        "username": "user18",
        "email": "user18@example.com",
        "firstName": "Carol",
        "lastName": "Davis",
        "active": true,
        "role": "admin",
        "createdAt": "2025-07-23T04:08:44.514Z"
      },
      {
        "id": 19,
        "username": "user19",
        "email": "user19@example.com",
        "firstName": "Alice",
        "lastName": "Smith",
        "active": true,
        "role": "moderator",
        "createdAt": "2025-10-01T03:03:40.492Z"
      },
      {
        "id": 20,
        "username": "user20",
        "email": "user20@example.com",
        "firstName": "Bob",
        "lastName": "Wilson",
        "active": true,
        "role": "user",
        "createdAt": "2024-12-14T17:33:58.796Z"
      },
      {
        "id": 21,
        "username": "user21",
        "email": "user21@example.com",
        "firstName": "Alice",
        "lastName": "Wilson",
        "active": true,
        "role": "admin",
        "createdAt": "2025-02-17T03:21:27.481Z"
      },
      {
        "id": 22,
        "username": "user22",
        "email": "user22@example.com",
        "firstName": "Bob",
        "lastName": "Brown",
        "active": true,
        "role": "moderator",
        "createdAt": "2025-09-24T03:49:45.813Z"
      },
      {
        "id": 23,
        "username": "user23",
        "email": "user23@example.com",
        "firstName": "Jane",
        "lastName": "Brown",
        "active": false,
        "role": "moderator",
        "createdAt": "2025-06-17T02:05:40.228Z"
      },
      {
        "id": 24,
        "username": "user24",
        "email": "user24@example.com",
        "firstName": "Bob",
        "lastName": "Davis",
        "active": true,
        "role": "user",
        "createdAt": "2025-10-18T10:47:59.701Z"
      },
      {
        "id": 25,
        "username": "user25",
        "email": "user25@example.com",
        "firstName": "Jane",
        "lastName": "Wilson",
        "active": true,
        "role": "moderator",
        "createdAt": "2025-04-24T03:54:10.174Z"
      }
    ]
  },
  "pagination": {
    "page": 1,
    "limit": 25,
    "total": 250,
    "totalPages": 10,
    "hasNext": true,
    "hasPrev": false
  },
  "meta": {
    "version": "2.0",
    "documentation": "https://api.example.com/docs",
    "rateLimiting": {
      "remaining": 995,
      "reset": "2025-10-21T07:02:23.611Z"
    }
  }
}