{
  "success": true,
  "timestamp": "2025-10-21T06:10:28.404Z",
  "requestId": "req_6w379cgbt9j",
  "data": {
    "users": [
      {
        "id": 1,
        "username": "user1",
        "email": "user1@example.com",
        "firstName": "Alice",
        "lastName": "Johnson",
        "active": true,
        "role": "admin",
        "createdAt": "2025-02-25T11:32:20.563Z"
      },
      {
        "id": 2,
        "username": "user2",
        "email": "user2@example.com",
        "firstName": "Bob",
        "lastName": "Brown",
        "active": true,
        "role": "user",
        "createdAt": "2025-05-29T02:52:56.398Z"
      },
      {
        "id": 3,
        "username": "user3",
        "email": "user3@example.com",
        "firstName": "Jane",
        "lastName": "Smith",
        "active": true,
        "role": "user",
        "createdAt": "2024-11-07T13:24:41.321Z"
      },
      {
        "id": 4,
        "username": "user4",
        "email": "user4@example.com",
        "firstName": "Bob",
        "lastName": "Johnson",
        "active": true,
        "role": "moderator",
        "createdAt": "2024-11-19T10:28:18.514Z"
      },
      {
        "id": 5,
        "username": "user5",
        "email": "user5@example.com",
        "firstName": "Alice",
        "lastName": "Brown",
        "active": true,
        "role": "moderator",
        "createdAt": "2025-03-04T03:14:19.254Z"
      },
      {
        "id": 6,
        "username": "user6",
        "email": "user6@example.com",
        "firstName": "Carol",
        "lastName": "Johnson",
        "active": true,
        "role": "moderator",
        "createdAt": "2025-09-08T03:34:07.494Z"
      },
      {
        "id": 7,
        "username": "user7",
        "email": "user7@example.com",
        "firstName": "John",
        "lastName": "Davis",
        "active": false,
        "role": "admin",
        "createdAt": "2025-03-24T16:40:26.582Z"
      },
      {
        "id": 8,
        "username": "user8",
        "email": "user8@example.com",
        "firstName": "John",
        "lastName": "Johnson",
        "active": true,
        "role": "moderator",
        "createdAt": "2025-08-07T21:24:48.562Z"
      },
      {
        "id": 9,
        "username": "user9",
        "email": "user9@example.com",
        "firstName": "John",
        "lastName": "Johnson",
        "active": true,
        "role": "admin",
        "createdAt": "2025-10-06T23:41:05.334Z"
      },
      {
        "id": 10,
        "username": "user10",
        "email": "user10@example.com",
        "firstName": "John",
        "lastName": "Wilson",
        "active": true,
        "role": "moderator",
        "createdAt": "2024-12-30T14:35:52.624Z"
      },
      {
        "id": 11,
        "username": "user11",
        "email": "user11@example.com",
        "firstName": "Bob",
        "lastName": "Davis",
        "active": true,
        "role": "admin",
        "createdAt": "2025-08-02T15:27:27.947Z"
      },
      {
        "id": 12,
        "username": "user12",
        "email": "user12@example.com",
        "firstName": "Jane",
        "lastName": "Johnson",
        "active": true,
        "role": "user",
        "createdAt": "2025-05-01T11:04:43.788Z"
      },
      {
        "id": 13,
        "username": "user13",
        "email": "user13@example.com",
        "firstName": "Alice",
        "lastName": "Davis",
        "active": true,
        "role": "user",
        "createdAt": "2025-03-17T10:55:41.697Z"
      },
      {
        "id": 14,
        "username": "user14",
        "email": "user14@example.com",
        "firstName": "John",
        "lastName": "Davis",
        "active": true,
        "role": "admin",
        "createdAt": "2024-12-05T08:16:22.933Z"
      },
      {
        "id": 15,
        "username": "user15",
        "email": "user15@example.com",
        "firstName": "Jane",
        "lastName": "Johnson",
        "active": false,
        "role": "admin",
        "createdAt": "2025-07-17T16:07:33.445Z"
      },
      {
        "id": 16,
        "username": "user16",
        "email": "user16@example.com",
        "firstName": "Carol",
        "lastName": "Brown",
        "active": false,
        "role": "admin",
        "createdAt": "2024-12-14T08:22:13.781Z"
      },
      {
        "id": 17,
        "username": "user17",
        "email": "user17@example.com",
        "firstName": "Carol",
        "lastName": "Davis",
        "active": true,
        "role": "admin",
        "createdAt": "2025-08-12T01:28:23.666Z"
      },
      {
        "id": 18,
        "username": "user18",
        "email": "user18@example.com",
        "firstName": "Carol",
        "lastName": "Brown",
        "active": true,
        "role": "user",
        "createdAt": "2024-12-08T06:16:54.335Z"
      },
      {
        "id": 19,
        "username": "user19",
        "email": "user19@example.com",
        "firstName": "John",
        "lastName": "Wilson",
        "active": true,
        "role": "admin",
        "createdAt": "2024-10-31T06:48:39.277Z"
      },
      {
        "id": 20,
        "username": "user20",
        "email": "user20@example.com",
        "firstName": "John",
        "lastName": "Davis",
        "active": true,
        "role": "moderator",
        "createdAt": "2024-12-11T13:16:04.713Z"
      },
      {
        "id": 21,
        "username": "user21",
        "email": "user21@example.com",
        "firstName": "Alice",
        "lastName": "Davis",
        "active": true,
        "role": "user",
        "createdAt": "2025-05-01T23:52:16.669Z"
      },
      {
        "id": 22,
        "username": "user22",
        "email": "user22@example.com",
        "firstName": "Bob",
        "lastName": "Davis",
        "active": true,
        "role": "moderator",
        "createdAt": "2025-05-16T14:47:32.840Z"
      },
      {
        "id": 23,
        "username": "user23",
        "email": "user23@example.com",
        "firstName": "Bob",
        "lastName": "Johnson",
        "active": false,
        "role": "moderator",
        "createdAt": "2025-02-03T16:16:45.568Z"
      },
      {
        "id": 24,
        "username": "user24",
        "email": "user24@example.com",
        "firstName": "Alice",
        "lastName": "Smith",
        "active": false,
        "role": "moderator",
        "createdAt": "2025-10-16T13:04:35.967Z"
      },
      {
        "id": 25,
        "username": "user25",
        "email": "user25@example.com",
        "firstName": "Jane",
        "lastName": "Davis",
        "active": true,
        "role": "user",
        "createdAt": "2025-02-05T06:09:12.086Z"
      }
    ]
  },
  "pagination": {
    "page": 1,
    "limit": 25,
    "total": 250,
    "totalPages": 10,
    "hasNext": true,
    "hasPrev": false
  },
  "meta": {
    "version": "2.0",
    "documentation": "https://api.example.com/docs",
    "rateLimiting": {
      "remaining": 995,
      "reset": "2025-10-21T07:10:28.404Z"
    }
  }
}