{"success":true,"timestamp":"2025-10-23T14:33:00.702Z","requestId":"req_kn1s7pgwyoo","data":{"users":[{"id":1,"username":"user1","email":"user1@example.com","firstName":"Alice","lastName":"Brown","active":true,"role":"admin","createdAt":"2025-05-07T12:18:01.447Z"},{"id":2,"username":"user2","email":"user2@example.com","firstName":"Carol","lastName":"Smith","active":true,"role":"user","createdAt":"2025-07-22T17:32:30.478Z"},{"id":3,"username":"user3","email":"user3@example.com","firstName":"Jane","lastName":"Brown","active":true,"role":"admin","createdAt":"2024-11-19T01:27:43.608Z"},{"id":4,"username":"user4","email":"user4@example.com","firstName":"Carol","lastName":"Davis","active":true,"role":"moderator","createdAt":"2024-12-27T05:42:50.877Z"},{"id":5,"username":"user5","email":"user5@example.com","firstName":"Jane","lastName":"Brown","active":true,"role":"user","createdAt":"2025-03-14T17:36:25.553Z"},{"id":6,"username":"user6","email":"user6@example.com","firstName":"Alice","lastName":"Johnson","active":false,"role":"admin","createdAt":"2025-01-02T08:19:17.606Z"},{"id":7,"username":"user7","email":"user7@example.com","firstName":"Bob","lastName":"Wilson","active":true,"role":"user","createdAt":"2025-08-19T02:06:22.241Z"},{"id":8,"username":"user8","email":"user8@example.com","firstName":"Jane","lastName":"Brown","active":true,"role":"moderator","createdAt":"2024-11-30T05:29:30.473Z"},{"id":9,"username":"user9","email":"user9@example.com","firstName":"Alice","lastName":"Brown","active":false,"role":"admin","createdAt":"2025-09-13T20:11:30.707Z"},{"id":10,"username":"user10","email":"user10@example.com","firstName":"Carol","lastName":"Smith","active":true,"role":"moderator","createdAt":"2025-10-09T15:20:37.296Z"},{"id":11,"username":"user11","email":"user11@example.com","firstName":"John","lastName":"Davis","active":false,"role":"moderator","createdAt":"2025-02-09T06:10:20.970Z"},{"id":12,"username":"user12","email":"user12@example.com","firstName":"John","lastName":"Davis","active":true,"role":"moderator","createdAt":"2024-11-04T15:39:12.324Z"},{"id":13,"username":"user13","email":"user13@example.com","firstName":"Alice","lastName":"Smith","active":true,"role":"admin","createdAt":"2024-11-26T19:54:28.098Z"},{"id":14,"username":"user14","email":"user14@example.com","firstName":"Jane","lastName":"Wilson","active":true,"role":"admin","createdAt":"2025-10-22T11:41:09.289Z"},{"id":15,"username":"user15","email":"user15@example.com","firstName":"Alice","lastName":"Brown","active":true,"role":"user","createdAt":"2025-02-08T19:07:36.581Z"},{"id":16,"username":"user16","email":"user16@example.com","firstName":"John","lastName":"Johnson","active":true,"role":"user","createdAt":"2025-10-08T13:44:17.275Z"},{"id":17,"username":"user17","email":"user17@example.com","firstName":"Bob","lastName":"Davis","active":false,"role":"admin","createdAt":"2024-11-20T12:04:44.476Z"},{"id":18,"username":"user18","email":"user18@example.com","firstName":"Alice","lastName":"Wilson","active":true,"role":"moderator","createdAt":"2025-09-01T10:39:45.121Z"},{"id":19,"username":"user19","email":"user19@example.com","firstName":"John","lastName":"Brown","active":true,"role":"admin","createdAt":"2025-05-18T09:56:12.923Z"},{"id":20,"username":"user20","email":"user20@example.com","firstName":"Bob","lastName":"Wilson","active":true,"role":"admin","createdAt":"2024-12-15T08:11:42.723Z"},{"id":21,"username":"user21","email":"user21@example.com","firstName":"John","lastName":"Smith","active":true,"role":"admin","createdAt":"2025-09-20T11:56:09.872Z"},{"id":22,"username":"user22","email":"user22@example.com","firstName":"Jane","lastName":"Davis","active":true,"role":"moderator","createdAt":"2024-11-05T01:26:29.475Z"},{"id":23,"username":"user23","email":"user23@example.com","firstName":"John","lastName":"Johnson","active":true,"role":"admin","createdAt":"2024-12-12T18:21:43.867Z"},{"id":24,"username":"user24","email":"user24@example.com","firstName":"Carol","lastName":"Johnson","active":true,"role":"admin","createdAt":"2025-03-11T04:55:56.349Z"},{"id":25,"username":"user25","email":"user25@example.com","firstName":"Alice","lastName":"Wilson","active":true,"role":"admin","createdAt":"2025-03-28T20:59:45.580Z"}]},"pagination":{"page":1,"limit":25,"total":250,"totalPages":10,"hasNext":true,"hasPrev":false},"meta":{"version":"2.0","documentation":"https://api.example.com/docs","rateLimiting":{"remaining":995,"reset":"2025-10-23T15:33:00.702Z"}}}