{
  "success": true,
  "timestamp": "2025-10-23T14:21:34.107Z",
  "requestId": "req_cvr6uy4k6pv",
  "data": {
    "users": [
      {
        "id": 1,
        "username": "user1",
        "email": "user1@example.com",
        "firstName": "John",
        "lastName": "Johnson",
        "active": false,
        "role": "moderator",
        "createdAt": "2025-06-25T14:55:57.823Z"
      },
      {
        "id": 2,
        "username": "user2",
        "email": "user2@example.com",
        "firstName": "John",
        "lastName": "Davis",
        "active": true,
        "role": "admin",
        "createdAt": "2025-09-06T23:18:43.782Z"
      },
      {
        "id": 3,
        "username": "user3",
        "email": "user3@example.com",
        "firstName": "Bob",
        "lastName": "Smith",
        "active": true,
        "role": "moderator",
        "createdAt": "2025-05-01T18:19:37.425Z"
      },
      {
        "id": 4,
        "username": "user4",
        "email": "user4@example.com",
        "firstName": "Jane",
        "lastName": "Brown",
        "active": false,
        "role": "user",
        "createdAt": "2025-05-24T11:35:53.959Z"
      },
      {
        "id": 5,
        "username": "user5",
        "email": "user5@example.com",
        "firstName": "Bob",
        "lastName": "Smith",
        "active": true,
        "role": "admin",
        "createdAt": "2025-05-27T09:54:54.448Z"
      },
      {
        "id": 6,
        "username": "user6",
        "email": "user6@example.com",
        "firstName": "Jane",
        "lastName": "Smith",
        "active": true,
        "role": "admin",
        "createdAt": "2024-12-09T09:48:56.484Z"
      },
      {
        "id": 7,
        "username": "user7",
        "email": "user7@example.com",
        "firstName": "Bob",
        "lastName": "Davis",
        "active": true,
        "role": "admin",
        "createdAt": "2025-08-11T13:26:32.253Z"
      },
      {
        "id": 8,
        "username": "user8",
        "email": "user8@example.com",
        "firstName": "Jane",
        "lastName": "Johnson",
        "active": false,
        "role": "user",
        "createdAt": "2024-11-20T16:30:07.803Z"
      },
      {
        "id": 9,
        "username": "user9",
        "email": "user9@example.com",
        "firstName": "Bob",
        "lastName": "Davis",
        "active": true,
        "role": "moderator",
        "createdAt": "2025-05-05T17:13:38.983Z"
      },
      {
        "id": 10,
        "username": "user10",
        "email": "user10@example.com",
        "firstName": "Bob",
        "lastName": "Wilson",
        "active": false,
        "role": "admin",
        "createdAt": "2025-06-04T13:11:58.488Z"
      },
      {
        "id": 11,
        "username": "user11",
        "email": "user11@example.com",
        "firstName": "Bob",
        "lastName": "Davis",
        "active": true,
        "role": "user",
        "createdAt": "2025-02-28T04:02:29.431Z"
      },
      {
        "id": 12,
        "username": "user12",
        "email": "user12@example.com",
        "firstName": "Bob",
        "lastName": "Wilson",
        "active": true,
        "role": "moderator",
        "createdAt": "2025-10-09T09:24:32.120Z"
      },
      {
        "id": 13,
        "username": "user13",
        "email": "user13@example.com",
        "firstName": "Jane",
        "lastName": "Davis",
        "active": true,
        "role": "moderator",
        "createdAt": "2025-08-20T00:45:59.344Z"
      },
      {
        "id": 14,
        "username": "user14",
        "email": "user14@example.com",
        "firstName": "Bob",
        "lastName": "Smith",
        "active": true,
        "role": "moderator",
        "createdAt": "2025-10-20T11:05:28.045Z"
      },
      {
        "id": 15,
        "username": "user15",
        "email": "user15@example.com",
        "firstName": "Jane",
        "lastName": "Smith",
        "active": true,
        "role": "user",
        "createdAt": "2024-12-04T05:34:09.094Z"
      },
      {
        "id": 16,
        "username": "user16",
        "email": "user16@example.com",
        "firstName": "Carol",
        "lastName": "Smith",
        "active": true,
        "role": "admin",
        "createdAt": "2025-02-20T15:41:09.055Z"
      },
      {
        "id": 17,
        "username": "user17",
        "email": "user17@example.com",
        "firstName": "Bob",
        "lastName": "Johnson",
        "active": true,
        "role": "admin",
        "createdAt": "2025-07-03T17:15:12.137Z"
      },
      {
        "id": 18,
        "username": "user18",
        "email": "user18@example.com",
        "firstName": "Alice",
        "lastName": "Smith",
        "active": true,
        "role": "user",
        "createdAt": "2025-10-05T11:57:40.810Z"
      },
      {
        "id": 19,
        "username": "user19",
        "email": "user19@example.com",
        "firstName": "Carol",
        "lastName": "Smith",
        "active": true,
        "role": "admin",
        "createdAt": "2025-01-21T03:06:13.274Z"
      },
      {
        "id": 20,
        "username": "user20",
        "email": "user20@example.com",
        "firstName": "Bob",
        "lastName": "Wilson",
        "active": true,
        "role": "user",
        "createdAt": "2025-02-14T18:51:16.336Z"
      },
      {
        "id": 21,
        "username": "user21",
        "email": "user21@example.com",
        "firstName": "Carol",
        "lastName": "Smith",
        "active": true,
        "role": "user",
        "createdAt": "2025-01-15T19:44:55.776Z"
      },
      {
        "id": 22,
        "username": "user22",
        "email": "user22@example.com",
        "firstName": "Bob",
        "lastName": "Davis",
        "active": true,
        "role": "admin",
        "createdAt": "2025-07-24T21:23:19.271Z"
      },
      {
        "id": 23,
        "username": "user23",
        "email": "user23@example.com",
        "firstName": "Carol",
        "lastName": "Davis",
        "active": true,
        "role": "user",
        "createdAt": "2025-09-24T16:53:53.434Z"
      },
      {
        "id": 24,
        "username": "user24",
        "email": "user24@example.com",
        "firstName": "Carol",
        "lastName": "Wilson",
        "active": true,
        "role": "user",
        "createdAt": "2025-04-30T22:40:33.568Z"
      },
      {
        "id": 25,
        "username": "user25",
        "email": "user25@example.com",
        "firstName": "Alice",
        "lastName": "Brown",
        "active": true,
        "role": "admin",
        "createdAt": "2025-02-11T02:57:52.414Z"
      }
    ]
  },
  "pagination": {
    "page": 1,
    "limit": 25,
    "total": 250,
    "totalPages": 10,
    "hasNext": true,
    "hasPrev": false
  },
  "meta": {
    "version": "2.0",
    "documentation": "https://api.example.com/docs",
    "rateLimiting": {
      "remaining": 995,
      "reset": "2025-10-23T15:21:34.107Z"
    }
  }
}