{
  "success": true,
  "timestamp": "1966-06-24T11:29:49.0Z",
  "requestId": "ae49adbf-4a00-43ef-9b41-37c0d22d99af",
  "data": [
    {
      "id": "7b87beb6-d8fe-4de0-8dad-f060fa8366e0",
      "name": "Taylor Jakubowski DVM",
      "email": "hxJAoYeFE@KQuPmdhrHVK.ibn",
      "username": "tempor"
    },
    {
      "id": "1e3b30ca-8c52-49df-9b1d-f6eb184037d5",
      "name": "Pamela Bernier",
      "email": "Wt6w2fMB@ADlafhRLUhWqtuhvqVobiUugVAFZITvDm.wcfs",
      "username": "officia sed est aliqua"
    },
    {
      "id": "1c326df5-1407-40c8-b4c2-bee87b68c9da",
      "name": "Sharon West",
      "email": "qEaSz@WKBaTvpl.cu",
      "username": "eiusm"
    },
    {
      "id": "b528ab17-6d75-41fa-bfec-84387b07a846",
      "name": "Tony Macejkovic",
      "email": "9bIgF4@LzhYI.ul",
      "username": "incididunt elit"
    },
    {
      "id": "4eff2e7a-5218-491c-8032-9b5b0447dad0",
      "name": "Darin Treutel",
      "email": "kisvWMoZcm1sOC@pyYHp.to",
      "username": "sit Lorem"
    },
    {
      "id": "ebe9eae2-6cde-4716-92cf-22d7667e9bbb",
      "name": "Miss Stacey Lehner",
      "email": "aHKOl@TXOXMf.nrpf",
      "username": "elit sed"
    },
    {
      "id": "740a5af6-7458-40cb-802a-ad49f886f3c3",
      "name": "Alberto O'Keefe-Hayes IV",
      "email": "vH1yaIOAhU49@ZpwQgALWAGTgaxkpFesmoS.bex",
      "username": "enim consectetur Excepteur"
    },
    {
      "id": "094b70e6-96af-451a-959d-b707b35c6821",
      "name": "Gretchen Funk",
      "email": "wQQ@fbUXpLmkhiWVyWEBSKQMqMPQgMuvVCsS.cym",
      "username": "quis Duis"
    },
    {
      "id": "e6f88d79-73a9-4628-891a-cbb5e176daba",
      "name": "Neal Wiegand",
      "email": "BSa@HyWhwZCuHPw.fa",
      "username": "labore enim nisi"
    },
    {
      "id": "2c9869fb-a702-49a5-85d4-3754233ffc70",
      "name": "Dr. Julius Kunde",
      "email": "iRRhML1REAwIP@CEkkqENbZJfRoxc.gc",
      "username": "in nostrud"
    },
    {
      "id": "6acf025c-a284-4d61-9ced-ac70fdd457a0",
      "name": "Lola Bosco III",
      "email": "OctIsSwnlAC54@WqinhE.vinu",
      "username": "fugiat ut"
    },
    {
      "id": "cc6350d9-301f-4d24-bb8a-020527154af4",
      "name": "Kim O'Kon",
      "email": "sMqOEIRX3Yq@hz.nf",
      "username": "in eu et"
    },
    {
      "id": "2a50604c-818f-4b6c-8bb4-7457bb76dcc6",
      "name": "Alison Littel",
      "email": "XTEEelYxp@qvZCQSndJWWqrtQjkEDkoHGn.ykp",
      "username": "elit sit do ut"
    },
    {
      "id": "4f02d90e-acec-42c7-8329-d7ce4cdb4fdb",
      "name": "Earl Schneider",
      "email": "cboKtZgI@FmBiRtQTYkLUUlLGxP.uoq",
      "username": "exercitation"
    },
    {
      "id": "3b14f1e3-7163-44a1-849e-c0d3e25b22ba",
      "name": "Amber Kuhn",
      "email": "XBGbSAsALEeoBiv@CcVFwY.hz",
      "username": "dolor qui magna quis"
    },
    {
      "id": "012c4ec8-77fe-4659-ba37-61cfcde72d2f",
      "name": "Karla Graham",
      "email": "lFACaxCmCe4@MKDeifchM.zj",
      "username": "Except"
    },
    {
      "id": "ca8713be-1b80-4ee0-a73e-26ef08a982b7",
      "name": "Jeanette Spinka",
      "email": "HkPylCdRtVem@CEIFx.vrhp",
      "username": "incididunt elit"
    },
    {
      "id": "86412bd8-6ced-4464-aeeb-21993055d21b",
      "name": "Antonio King",
      "email": "7418Wr1kd4@QZvtPpqhwiRbhjFyeXLqffLeXFvPyU.cdn",
      "username": "in sit id officia"
    },
    {
      "id": "80bbf5d0-a320-47ac-b24f-509bccd17683",
      "name": "Otis Towne",
      "email": "TXzebOLjBs-4Rp@FDEPkGNIrjSOw.nofp",
      "username": "fugiat aute u"
    },
    {
      "id": "52ddbeba-6b1b-4d54-be13-8f553fc9eeda",
      "name": "Kerry Wolff",
      "email": "1mwA6vNtfV9@ETpaSZZQASYqrIurMph.fjlb",
      "username": "cillum dolore proident laboris ipsum"
    }
  ],
  "pagination": {
    "page": 30,
    "limit": 33,
    "total": 9600,
    "totalPages": 810,
    "hasNext": false,
    "hasPrev": true
  },
  "meta": {
    "version": "28232650.70468541764.92",
    "environment": "development"
  }
}